{
  "entities": [
    {
      "sectionStructure": {
        "columns": [
          {
            "code": "YOUR_EEID",
            "displayLabel": "Employee Identifier",
            "dataType": "int",
            "questionType": "integer",
            "validations": []
          },
          {
            "code": "YOUR_TITLE",
            "displayLabel": "Organisation Job Title",
            "dataType": "string",
            "questionType": "text",
            "validations": []
          },
          {
            "code": "dependent1",
            "displayLabel": "Dependent1",
            "dataType": "string",
            "questionType": "text",
            "validations": []
          },
          {
            "code": "dependent2",
            "displayLabel": "Dependent2",
            "dataType": "string",
            "questionType": "text",
            "validations": []
          },
          {
            "code": "dependent3",
            "displayLabel": "Dependent3",
            "dataType": "string",
            "questionType": "text",
            "validations": []
          },          
          {
            "_id": "59dd3a05badc3014933ff6a5",
            "questionType": "dropdown",
            "code": "eligibility",
            "displayLabel": "Eligibility",
            "dataType": "string",
            "validations": [
              
            ],
            "options": {
              "questionsAnswers": [],
              "items": [
                {
                  "value": "Y",
                  "displayName": "Yes"
                },
                {
                  "value": "N",
                  "displayName": "No"
                },
                {  
                     "displayName":"Not applicable",
                     "value":"NA"
                  }				
              ]
            }
          },
		  {
            "_id": "59dd3a05badc3014933ff6a5",
            "questionType": "dropdown",
            "code": "Dropdowntest",
            "displayLabel": "Dropdowntest",
            "dataType": "string",
            "validations": [
              
            ],
            "options":{  
               "items":[  
                  {  
                     "displayName":"Personal Lines",
                     "value":"1"
                  },
                  {  
                     "displayName":"Commercial Lines",
                     "value":"2"
                  },
                  {  
                     "displayName":"Multiple Personal & Commercial Lines",
                     "value":"3"
                  },
                  {  
                     "displayName":"Industry Based Lines",
                     "value":"4"
                  },
                  {  
                     "displayName":"Specialty Lines",
                     "value":"5"
                  },
                  {  
                     "displayName":"Other",
                     "value":"6"
                  },
                  {  
                     "displayName":"Not applicable",
                     "value":"NA"
                  }
               ]
            }

          },
		  {
            "code": "garbage",
            "displayLabel": "garbage",
            "dataType": "string",
            "questionType": "text",
            "validations": []
          }
		  
		  
        ]
      },
      "otherSectionsData": {},
      "contextData": {
        "campaignId": "59ca2a66c1e15a565af88407",
        "companyId": "59c3eac0fc22fa6928d09aa4",
        "companyName": "Exadel",
        "sectionId": "pe3707Section",
        "grpCode": "",
        "cpyCode": "",
        "ctryCode": "PL",
        "orgSize": {
          "59c3eac0fc22fa6928d09aa4": null
        },
        "uniqueIdColumnCode": "YOUR_EEID",
        "industry": {
          "superSector": "CG",
          "sector": "100",
          "subSector": "101"
        }
      }
    }
  ]
}