{
  "entities": [
    {
      "contextData": {
        "campaignId": "1",
        "companyId": "12345",
        "grpCode": "1435",
        "cpyCode": "4444",
        "ctryCode": "PL",
        "industry": {
          "superSector": "DCG",
          "sector": "100",
          "subSector": "101"
        },
        "orgSize": 123
      },
      "sections": [
        {
          "sectionCode": "incumbent_data",
          "data": [
            {
              "Q_PDA_MDA_clearvalue_ValType_Exprn_Input1": "Yes",
			  "Q_PDA_MDA_clearvalue_ValType_Exprn_Input2": "Notinoption",
			  "Q_PDA_MDA_clearvalue_ValType_Exprn_Input3": "",
			  "Q_PDA_MDA_clearvalue_ValType_Exprn_Input4": null,
			  "Q_PDA_MDA_clearvalue_ValType_Req_Input1": "Yes",
			  "Q_PDA_MDA_clearvalue_ValType_Req_Input2": "Notinoption",
			  "Q_PDA_MDA_clearvalue_ValType_Req_Input3": "",
			  "Q_PDA_MDA_clearvalue_ValType_Req_Input4": null
			  
            }
          ],
          "sectionStructure": {
            "columns": [
              {
	            "code": "Q_PDA_MDA_clearvalue_ValType_Exprn_Input1",
	            "dataType": "string",
	            "questionType": "dropdown",
	            "validations": [
	            	{
	                "_id": "5a277d59de1ad300148c5590",
	                "isFatal": false,
	                "category": "input_data",
	                "dependentColumns": [],
	                
	                "mda":"clear_value",
	                "validationType": "expression",
	                "expression":"1==1;",
	                "errorType": "ERROR"
	            	}
	            ],
	            "options": {
	              "items": [
	                {
	                  "value": "Yes",
	                  "displayName": "Yes"
	                },
	                {
	                  "value": "No",
	                  "displayName": "No"
	                }
	              ]
	            }
          },
	{
	            "code": "Q_PDA_MDA_clearvalue_ValType_Exprn_Input2",
	            "dataType": "string",
	            "questionType": "dropdown",
	            "validations": [
	            	{
	                "_id": "5a277d59de1ad300148c5590",
	                "isFatal": false,
	                "category": "input_data",
	                "dependentColumns": [],
	                
	                "mda":"clear_value",
	                "validationType": "expression",
	                "expression":"1!=1;",
	                "errorType": "ERROR"
	            	}
	            ],
	            "options": {
	              "items": [
	                {
	                  "value": "Yes",
	                  "displayName": "Yes"
	                },
	                {
	                  "value": "No",
	                  "displayName": "No"
	                }
	              ]
	            }
          },
		  {
	            "code": "Q_PDA_MDA_clearvalue_ValType_Exprn_Input3",
	            "dataType": "string",
	            "questionType": "dropdown",
	            "validations": [
	            	{
	                "_id": "5a277d59de1ad300148c5590",
	                "isFatal": false,
	                "category": "input_data",
	                "dependentColumns": [],
	                
	                "mda":"clear_value",
	                "validationType": "expression",
	                "expression":"1!=1;",
	                "errorType": "ERROR"
	            	}
	            ],
	            "options": {
	              "items": [
	                {
	                  "value": "Yes",
	                  "displayName": "Yes"
	                },
	                {
	                  "value": "No",
	                  "displayName": "No"
	                }
	              ]
	            }
          },
		  {
	            "code": "Q_PDA_MDA_clearvalue_ValType_Exprn_Input4",
	            "dataType": "string",
	            "questionType": "dropdown",
	            "validations": [
	            	{
	                "_id": "5a277d59de1ad300148c5590",
	                "isFatal": false,
	                "category": "input_data",
	                "dependentColumns": [],
	                
	                "mda":"clear_value",
	                "validationType": "expression",
	                "expression":"1!=1;",
	                "errorType": "ERROR"
	            	}
	            ],
	            "options": {
	              "items": [
	                {
	                  "value": "Yes",
	                  "displayName": "Yes"
	                },
	                {
	                  "value": "No",
	                  "displayName": "No"
	                }
	              ]
	            }
          },
		  {
	            "code": "Q_PDA_MDA_clearvalue_ValType_Req_Input1",
	            "dataType": "string",
	            "questionType": "dropdown",
	            "validations": [
	            	{
	                "_id": "5a277d59de1ad300148c5590",
	                "isFatal": false,
	                "category": "input_data",
	                "dependentColumns": [],
	                
	                "mda":"clear_value",
	                "validationType": "required",
	                "expression":"1!=1;",
	                "errorType": "ERROR"
	            	}
	            ],
	            "options": {
	              "items": [
	                {
	                  "value": "Yes",
	                  "displayName": "Yes"
	                },
	                {
	                  "value": "No",
	                  "displayName": "No"
	                }
	              ]
	            }
          },
		  {
	            "code": "Q_PDA_MDA_clearvalue_ValType_Req_Input2",
	            "dataType": "string",
	            "questionType": "dropdown",
	            "validations": [
	            	{
	                "_id": "5a277d59de1ad300148c5590",
	                "isFatal": false,
	                "category": "input_data",
	                "dependentColumns": [],
	                
	                "mda":"clear_value",
	                "validationType": "required",
	                "expression":"1!=1;",
	                "errorType": "ERROR"
	            	}
	            ],
	            "options": {
	              "items": [
	                {
	                  "value": "Yes",
	                  "displayName": "Yes"
	                },
	                {
	                  "value": "No",
	                  "displayName": "No"
	                }
	              ]
	            }
          },
		  {
	            "code": "Q_PDA_MDA_clearvalue_ValType_Req_Input3",
	            "dataType": "string",
	            "questionType": "dropdown",
	            "validations": [
	            	{
	                "_id": "5a277d59de1ad300148c5590",
	                "isFatal": false,
	                "category": "input_data",
	                "dependentColumns": [],
	                
	                "mda":"clear_value",
	                "validationType": "required",
	                "expression":"1!=1;",
	                "errorType": "ERROR"
	            	}
	            ],
	            "options": {
	              "items": [
	                {
	                  "value": "Yes",
	                  "displayName": "Yes"
	                },
	                {
	                  "value": "No",
	                  "displayName": "No"
	                }
	              ]
	            }
          },
		  {
	            "code": "Q_PDA_MDA_clearvalue_ValType_Req_Input4",
	            "dataType": "string",
	            "questionType": "dropdown",
	            "validations": [
	            	{
	                "_id": "5a277d59de1ad300148c5590",
	                "isFatal": false,
	                "category": "input_data",
	                "dependentColumns": [],
	                
	                "mda":"clear_value",
	                "validationType": "required",
	                "expression":"1!=1;",
	                "errorType": "ERROR"
	            	}
	            ],
	            "options": {
	              "items": [
	                {
	                  "value": "Yes",
	                  "displayName": "Yes"
	                },
	                {
	                  "value": "No",
	                  "displayName": "No"
	                }
	              ]
	            }
          }

            ]
          }
        },
        {
          "sectionCode": "company_data",
          "sectionStructure": {
            "columns": [
              {
                "code": "C",
                "displayLabel": "C",
                "dataType": "string",
                "questionType": "text",
                "category": "cross_section",
                "validations": [
                ]
              }
            ]
          },
          "data": [
            {
              "C": "1"
            },{
              "C": "2"
            }
          ]
        }
      ]
    }
  ]
}
