{
    "entities": [
        {
            "data": [
                {
                    "VOL_CURR": "",
                    "ORG_OWN": "",
                    "CD_248": "",
                    "CD_467": "",
                    "CD_475": "",
                    "VOL_OPBUD": "",
                    "$$id": "5a167db43abd0c72d634dcb7",
                    "CD_025": "",
                    "CD_044": "",
                    "CD_045": "",
                    "CD_471": "",
                    "CD_251": "",
                    "CD_043": "",
                    "CD_073": "",
                    "CD_071": "",
                    "ORG_TYPE": "",
                    "CO_ACT_PROD": [],
                    "validationErrors": [
                        {
                            "field": "VOL_CURR",
                            "errorType": "ERROR",
                            "messageKey": "mosaic-error-message.provide_one_of_values",
                            "messageParams": {
                                "values": "Currency for monetary values below"
                            }
                        },
                        {
                            "dependentColumns": "",
                            "expression": "ISBLANK(this.CD_006A);",
                            "errorType": "ERROR",
                            "validationType": "expression",
                            "_id": "5a0df2d83c44c100158c920f",
                            "message": "Worldwide Net Sales Revenue for your Parent Organization  is required",
                            "category": "input_data",
                            "field": "CD_006A"
                        },
                        {
                            "dependentColumns": "",
                            "expression": "ISBLANK(this.CD_006B);",
                            "errorType": "ERROR",
                            "validationType": "expression",
                            "_id": "5a0df2d83c44c100158c9210",
                            "message": "Organization's total worldwide number of full-time employees. is required",
                            "category": "input_data",
                            "field": "CD_006B"
                        },
                        {
                            "dependentColumns": "",
                            "expression": "ISBLANK(this.NUM_EMP);",
                            "errorType": "ERROR",
                            "validationType": "expression",
                            "_id": "5a0df2d93c44c100158c9217",
                            "message": "Full-time equivalents (FTEs) for most recent completed fiscal year (2017): is required",
                            "category": "input_data",
                            "field": "NUM_EMP"
                        },
                        {
                            "dependentColumns": "",
                            "expression": "ISBLANK(this.CD_024);",
                            "errorType": "ERROR",
                            "validationType": "expression",
                            "_id": "5a0df2d83c44c100158c9214",
                            "message": "Full-time equivalents (FTEs) for prior fiscal year (2016): is required",
                            "category": "input_data",
                            "field": "CD_024"
                        },
                        {
                            "dependentColumns": "",
                            "expression": "ISBLANK(this.CO_ACT_PROD);",
                            "errorType": "ERROR",
                            "validationType": "expression",
                            "isFatal": "false",
                            "_id": "5a11e9815524e90015bb2a7b",
                            "message": "Please select organization's activities (Products) which are appropriate to describe your organization. Do not include outsourced activities. is required",
                            "category": "input_data",
                            "field": "CO_ACT_PROD"
                        },
                        {
                            "dependentColumns": "",
                            "expression": "ISBLANK(this.CD_046.EXEC2);",
                            "errorType": "ERROR",
                            "validationType": "expression",
                            "_id": "5a0df2d83c44c100158c9215",
                            "message": " Total is required",
                            "category": "input_data",
                            "dimension": "EXEC2",
                            "field": "CD_046"
                        },
                        {
                            "dependentColumns": "",
                            "expression": "ISBLANK(this.CD_046.MGMT2);",
                            "errorType": "ERROR",
                            "validationType": "expression",
                            "_id": "5a0df2d83c44c100158c9215",
                            "message": " Total is required",
                            "category": "input_data",
                            "dimension": "MGMT2",
                            "field": "CD_046"
                        },
                        {
                            "dependentColumns": "",
                            "expression": "ISBLANK(this.CD_046.PROF2);",
                            "errorType": "ERROR",
                            "validationType": "expression",
                            "_id": "5a0df2d83c44c100158c9215",
                            "message": " Total is required",
                            "category": "input_data",
                            "dimension": "PROF2",
                            "field": "CD_046"
                        },
                        {
                            "dependentColumns": "",
                            "expression": "ISBLANK(this.CD_046.OTHER2);",
                            "errorType": "ERROR",
                            "validationType": "expression",
                            "_id": "5a0df2d83c44c100158c9215",
                            "message": " Total is required",
                            "category": "input_data",
                            "dimension": "OTHER2",
                            "field": "CD_046"
                        },
                        {
                            "field": "CD_467",
                            "errorType": "ERROR",
                            "messageKey": "mosaic-error-message.provide_one_of_values",
                            "messageParams": {
                                "values": "Please select family"
                            }
                        },
                        {
                            "field": "CD_471",
                            "errorType": "ERROR",
                            "messageKey": "mosaic-error-message.provide_one_of_values",
                            "messageParams": {
                                "values": "Please select family"
                            }
                        },
                        {
                            "field": "CD_475",
                            "errorType": "ERROR",
                            "messageKey": "mosaic-error-message.provide_one_of_values",
                            "messageParams": {
                                "values": "Please select family"
                            }
                        }
                    ]
                }
            ],
            "contextData": {
                "uniqueIdColumnCode": "YOUR_EEID",
                "companyId": "5a1448027eb0b185b1e6b628",
                "campaignId": "597b474bfe305700157895c0",
                "grpCode": "",
                "companyName": "ABC",
                "cpyCode": "",
                "industry": {
                    "superSector": "CG",
                    "subSector": "2670",
                    "sector": "101"
                },
                "sectionId": "CD_000",
                "orgSize": null,
                "ctryCode": "GB"
            }
        }
    ]
}