YOUR_EEID,YOUR_TITLE,RandomQuesCode1,RandomQuesCode2,RandomQuesCode3,RandomQuesCode4,RandomQuesCode5,RandomQuesCode6,POS_CLASS,YOUR_CODE,YOUR_LEVEL,YOUR_GRADE,POS_CODE,YOUR_OTHER,EMP_125,EMP_128,EMP_129,Company_ID_Upload,Country_ID_Upload
Employee Identifier,Organization Job Title,RandomQuesLabel1,RandomQuesLabel2,RandomQuesLabel3,RandomQuesLabel4,RandomQuesLabel5,RandomQuesLabel6,IPE Position Class (current year) (only for IPE users),Organization Job Code,Organization Job Level,Organization Job Grade,Mercer Benchmark Code,Organization Job ID - Other,Monthly Base Salary (Equivalent to Full Time Employment),Number of Months Paid,Annual Base Salary (Equivalent to Full Time Employment),CompanyIDs,CountryIDs
1,Human Resources Service Center Support - Entry Professional  Technical,2,7/7/2017,a,11,9,12,51,ADM002,T40,1,600.724.240,33,12345,12,,KFC-123,UAE
2,Technical Project Management: Web Development - Entry Professional  (P1),9,7/7/2018,b,111,8,13,52,ADM001,T40,1,ENS.07.014.E20,11,12345,12,,Dominos-123,PL
3,Human Resources Service Center Support - Entry Professional  Technical,8,7/7/2019,c,3,12,14,53,R&D001,T40,1,ENS.07.014.E20,22,12345,12,,PizzaHut-123,PL
