timeStamp,elapsed,label,responseCode,threadName,success,bytes,grpThreads,allThreads,Latency,SampleCount,ErrorCount,Hostname,Connect
1520328132515,5161,FileUpload F1_PE-8157_Ignore,200,Thread Group_Prod1 1-1,false,6260,1,1,5107,1,1,INFPU07042,554
1520328138292,1570,FileUpload F1_PE-8110_ErrorCell,200,Thread Group_Prod1 1-1,true,1571,1,1,1570,1,0,INFPU07042,263
1520328139947,5312,FileUpload F2_PE-8110_ErrorCell_Ignore,422,Thread Group_Prod1 1-1,false,650896,1,1,2069,1,1,INFPU07042,0
1520328145365,2630,FileUpload F3_PE-8110_ErrorCell_Ignore,400,Thread Group_Prod1 1-1,false,385,1,1,2629,1,1,INFPU07042,251
1520328148014,854,FileUpload F4_PE-5678_SequentialWithOtherValidations,200,Thread Group_Prod1 1-1,true,5471,1,1,853,1,0,INFPU07042,302
1520328148912,307,NoFileUpload N1_PE-5678_LOOK_UP_CHECK1,200,Thread Group_Prod1 1-1,true,1077,1,1,306,1,0,INFPU07042,0
1520328149259,265,NoFileUpload N1_PE-5678_SequentialWithOtherValidations,200,Thread Group_Prod1 1-1,true,994,1,1,265,1,0,INFPU07042,0
1520328149562,265,NoFileUpload N2_PE-5678_SequentialWithOtherValidations,200,Thread Group_Prod1 1-1,true,959,1,1,265,1,0,INFPU07042,0
1520328149891,826,"NoFileUpload_Null Validation_crossSectionChecks_LPALL_566 is """"",200,Thread Group_Prod1 1-1,true,6764,1,1,826,1,0,INFPU07042,0
1520328150759,2437,NoFileUpload_Null Validation_crossSectionChecks_LPALL_566 is null,200,Thread Group_Prod1 1-1,true,6760,1,1,2436,1,0,INFPU07042,255
1520328153251,3221,"NoFileUpload_Null Validation_crossSectionChecks_LPALL_566 is ""null""",200,Thread Group_Prod1 1-1,true,6903,1,1,3218,1,0,INFPU07042,255
1520328156519,3616,"NoFileUpload_Null Validation_crossSectionChecks_LPALL_566 is ""   """,200,Thread Group_Prod1 1-1,true,6767,1,1,3612,1,0,INFPU07042,260
1520328160159,1804,NoFileUpload N3_PE-7172MDA,200,Thread Group_Prod1 1-1,true,664,1,1,1804,1,0,INFPU07042,267
1520328162055,651,FileUpload F5_PE7172_Fix,200,Thread Group_Prod1 1-1,true,4873,1,1,650,1,0,INFPU07042,0
1520328162723,1206,NoFileUpload N4_PE-8032MDA,200,Thread Group_Prod1 1-1,true,664,1,1,1206,1,0,INFPU07042,263
1520328163958,904,NoFileUpload N5_PE-8070,200,Thread Group_Prod1 1-1,true,886,1,1,903,1,0,INFPU07042,0
1520328164907,1393,NoFileUpload N73_PE5668 T2_Temp,200,Thread Group_Prod1 1-1,true,609,1,1,1392,1,0,INFPU07042,273
1520328166331,305,NoFileUpload N74_PE5668 T3_Temp,200,Thread Group_Prod1 1-1,true,758,1,1,305,1,0,INFPU07042,0
1520328166686,300,NoFileUpload N75_PE5668 T4_Temp,200,Thread Group_Prod1 1-1,true,706,1,1,300,1,0,INFPU07042,0
1520328167021,1286,NoFileUpload N76_PE5668 T5_Temp,200,Thread Group_Prod1 1-1,true,720,1,1,1286,1,0,INFPU07042,256
1520328168325,265,NoFileUpload N78_PE5668 T7_Temp,200,Thread Group_Prod1 1-1,true,710,1,1,264,1,0,INFPU07042,0
1520328168603,265,NoFileUpload N79_PE5668 T8_Temp,200,Thread Group_Prod1 1-1,true,612,1,1,265,1,0,INFPU07042,0
1520328168881,1218,FileUpload F6_PE-7257_US_CSV_Shuffle,200,Thread Group_Prod1 1-1,false,4349,1,1,1217,1,1,INFPU07042,0
1520328170116,2266,FileUpload F7_PE-7257_US_Excel_Shuffle,200,Thread Group_Prod1 1-1,true,4532,1,1,2265,1,0,INFPU07042,258
1520328172398,1897,NoFileUpload N6_PE7978,200,Thread Group_Prod1 1-1,true,6632,1,1,1895,1,0,INFPU07042,267
1520328174334,270,NoFileUpload N7_PE7954,200,Thread Group_Prod1 1-1,true,727,1,1,270,1,0,INFPU07042,0
1520328174635,1260,NoFileUpload N77_PE5668 T6,200,Thread Group_Prod1 1-1,true,716,1,1,1260,1,0,INFPU07042,251
1520328175911,295,FileUpload F8_PE7999_Ignore since files are identical,422,Thread Group_Prod1 1-1,false,1282,1,1,295,1,1,INFPU07042,0
1520328176221,263,NoFileUpload N8_ PE7795,200,Thread Group_Prod1 1-1,true,717,1,1,263,1,0,INFPU07042,0
1520328176498,263,NoFileUpload N9_PE7046_AU_Comp2,200,Thread Group_Prod1 1-1,true,914,1,1,263,1,0,INFPU07042,0
1520328176775,800,NoFileUpload N10_PE7046_US_Comp1,200,Thread Group_Prod1 1-1,true,910,1,1,799,1,0,INFPU07042,262
1520328177587,267,NoFileUpload N11_PE7046_IN_Comp1,200,Thread Group_Prod1 1-1,true,915,1,1,267,1,0,INFPU07042,0
1520328177867,265,NoFileUpload N12_PE7046_ZA_Comp2,200,Thread Group_Prod1 1-1,true,914,1,1,265,1,0,INFPU07042,0
1520328178143,795,NoFileUpload N13_PE7773_NUM_EMP is 7_Fix,200,Thread Group_Prod1 1-1,false,1099,1,1,795,1,1,INFPU07042,0
1520328179003,1521,NoFileUpload N14_PE7773_NUM_EMP is 8.1_boundry is 8,200,Thread Group_Prod1 1-1,true,1100,1,1,1521,1,0,INFPU07042,252
1520328180560,287,NoFileUpload N15_PE7773_NUM_EMP is 9_boundry is 8,200,Thread Group_Prod1 1-1,true,1099,1,1,287,1,0,INFPU07042,0
1520328180889,369,FileUpload F9_PE5216_ImpactedbyComment,200,Thread Group_Prod1 1-1,true,1345,1,1,369,1,0,INFPU07042,0
1520328181293,809,NoFileUpload N16_PE7044_expression,200,Thread Group_Prod1 1-1,true,674,1,1,809,1,0,INFPU07042,267
1520328182103,541,NoFileUpload N17_PE7044_range,200,Thread Group_Prod1 1-1,true,917,1,1,540,1,0,INFPU07042,0
1520328182697,274,NoFileUpload N18_PE7044_rangeValidationRefTable,200,Thread Group_Prod1 1-1,true,912,1,1,273,1,0,INFPU07042,0
1520328183013,277,NoFileUpload N19_PE7044_rangeValidationRefTable_dimensions,200,Thread Group_Prod1 1-1,true,942,1,1,276,1,0,INFPU07042,0
1520328183326,2390,FileUpload F10_PE5691_1Record_Ignore,400,Thread Group_Prod1 1-1,false,327,1,1,2390,1,1,INFPU07042,280
1520328185745,2088,FileUpload F11_PE5691_1Record_Ignore,400,Thread Group_Prod1 1-1,false,327,1,1,2087,1,1,INFPU07042,258
1520328187851,1108,FileUpload F12_PE6027_Ref Table,200,Thread Group_Prod1 1-1,true,2193,1,1,1107,1,0,INFPU07042,282
1520328189000,570,FileUpload F13_PE6030,200,Thread Group_Prod1 1-1,true,3289,1,1,569,1,0,INFPU07042,0
1520328189630,268,NoFileUpload N20_PE7033,200,Thread Group_Prod1 1-1,true,910,1,1,268,1,0,INFPU07042,0
1520328189900,777,NoFileUpload N21_PE7314,200,Thread Group_Prod1 1-1,true,771,1,1,777,1,0,INFPU07042,256
1520328190702,1817,FileUpload F14_PE7071_1Record_Shuffle,200,Thread Group_Prod1 1-1,false,4188,1,1,1816,1,1,INFPU07042,0
1520328192557,3240,FileUpload F15_PE7071_1Record,200,Thread Group_Prod1 1-1,false,4749,1,1,3240,1,1,INFPU07042,262
1520328195829,2537,FileUpload F16_PE7071_1Record,200,Thread Group_Prod1 1-1,false,4188,1,1,2536,1,1,INFPU07042,323
1520328198403,2087,FileUpload F17_PE7071_1Record,400,Thread Group_Prod1 1-1,false,365,1,1,2087,1,1,INFPU07042,260
1520328200505,2201,FileUpload F18_PE7611,200,Thread Group_Prod1 1-1,true,1989,1,1,2200,1,0,INFPU07042,285
1520328202723,2138,FileUpload F19_PE7611,200,Thread Group_Prod1 1-1,false,1790,1,1,2137,1,1,INFPU07042,249
1520328204885,2138,FileUpload F20_PE7611,200,Thread Group_Prod1 1-1,true,1913,1,1,2138,1,0,INFPU07042,253
1520328207036,2212,FileUpload F21_PE7611,200,Thread Group_Prod1 1-1,true,1989,1,1,2211,1,0,INFPU07042,260
1520328209273,2125,FileUpload F22_PE7611,200,Thread Group_Prod1 1-1,false,2118,1,1,2125,1,1,INFPU07042,249
1520328211424,2366,FileUpload F23_PE7611,200,Thread Group_Prod1 1-1,false,1995,1,1,2365,1,1,INFPU07042,248
1520328213804,2228,FileUpload F24_PE7611,200,Thread Group_Prod1 1-1,false,1995,1,1,2227,1,1,INFPU07042,244
1520328216076,2155,FileUpload F25_PE7611,200,Thread Group_Prod1 1-1,false,1883,1,1,2155,1,1,INFPU07042,255
1520328218278,2234,FileUpload F26_PE7611,200,Thread Group_Prod1 1-1,false,1884,1,1,2233,1,1,INFPU07042,263
1520328220540,2132,FileUpload F27_PE7611,200,Thread Group_Prod1 1-1,true,2119,1,1,2131,1,0,INFPU07042,252
1520328222701,876,FileUpload F28_6713CSV_SkipLastBlankRow,200,Thread Group_Prod1 1-1,true,1752,1,1,875,1,0,INFPU07042,335
1520328223577,268,FileUpload F29_6713CSV_SkipInitialRow,200,Thread Group_Prod1 1-1,true,1461,1,1,268,1,0,INFPU07042,0
1520328223862,272,FileUpload F30_6713CSV_SkipMiddleBlankRows,200,Thread Group_Prod1 1-1,true,2055,1,1,272,1,0,INFPU07042,0
1520328224148,548,FileUpload F31_6713Excel_SkipInitialRow,200,Thread Group_Prod1 1-1,true,1461,1,1,548,1,0,INFPU07042,0
1520328224730,524,FileUpload F32_6713Excel_SkipLastBlankRow,200,Thread Group_Prod1 1-1,true,1752,1,1,523,1,0,INFPU07042,0
1520328225283,1069,FileUpload F33_6713Excel_SkipMiddleRow,200,Thread Group_Prod1 1-1,true,2055,1,1,1069,1,0,INFPU07042,260
1520328226377,263,NoFileUpload N22_PE7631_metaData,200,Thread Group_Prod1 1-1,true,604,1,1,263,1,0,INFPU07042,0
1520328226662,262,NoFileUpload N23_PE7631_metaData,200,Thread Group_Prod1 1-1,true,604,1,1,262,1,0,INFPU07042,0
1520328226936,268,NoFileUpload N24_PE7631_Autocorrect,200,Thread Group_Prod1 1-1,true,836,1,1,267,1,0,INFPU07042,0
1520328227231,273,NoFileUpload N25_PE7631,200,Thread Group_Prod1 1-1,true,830,1,1,273,1,0,INFPU07042,0
1520328227519,746,NoFileUpload N26_7045RawJson_NonNumerciData,200,Thread Group_Prod1 1-1,true,846,1,1,746,1,0,INFPU07042,251
1520328228316,248,NoFileUpload N27_7045RawJson_SkipBlankCols,200,Thread Group_Prod1 1-1,true,771,1,1,248,1,0,INFPU07042,0
1520328228608,251,NoFileUpload N28_7045RawJson_SkipNonNumericCols,200,Thread Group_Prod1 1-1,true,675,1,1,251,1,0,INFPU07042,0
1520328228881,249,NoFileUpload N29_7045RawJson_WithDimesion,200,Thread Group_Prod1 1-1,true,853,1,1,249,1,0,INFPU07042,0
1520328229156,250,NoFileUpload N30_7045RawJson_SingleNonBlankValue,200,Thread Group_Prod1 1-1,true,615,1,1,249,1,0,INFPU07042,0
1520328229435,249,NoFileUpload N31_7045RawJson_WithOtherValidation,200,Thread Group_Prod1 1-1,true,903,1,1,249,1,0,INFPU07042,0
1520328229717,799,FileUpload F34_PE7045_7045CSV_SimpleSequentialCheck,200,Thread Group_Prod1 1-1,true,2040,1,1,798,1,0,INFPU07042,262
1520328230533,553,FileUpload F35_PE7045_7045Excel_SimpleSequentialCheck,200,Thread Group_Prod1 1-1,true,2028,1,1,553,1,0,INFPU07042,0
1520328231114,265,FileUpload F36_PE7045_7045CSV_SkipBlankColumn,200,Thread Group_Prod1 1-1,true,1727,1,1,264,1,0,INFPU07042,0
1520328231394,527,FileUpload F37_PE7045_7045EXCEL_SkipBlankColumn,200,Thread Group_Prod1 1-1,true,2070,1,1,527,1,0,INFPU07042,0
1520328231933,774,FileUpload F38_PE7045_7045CSV_SkipNonNumericData,200,Thread Group_Prod1 1-1,true,1628,1,1,773,1,0,INFPU07042,250
1520328232725,533,FileUpload F39_PE7045_7045EXCEL_SkipNonNumericData,200,Thread Group_Prod1 1-1,true,2584,1,1,532,1,0,INFPU07042,0
1520328233270,263,NoFileUpload N32_PE7474_Testcase1,200,Thread Group_Prod1 1-1,true,900,1,1,263,1,0,INFPU07042,0
1520328233574,261,NoFileUpload N33_PE7474_Testcase2,200,Thread Group_Prod1 1-1,true,903,1,1,261,1,0,INFPU07042,0
1520328233866,274,NoFileUpload N34_PE7474_Testcase3,200,Thread Group_Prod1 1-1,true,815,1,1,268,1,0,INFPU07042,0
1520328234162,798,NoFileUpload N35_PE7474_Testcase4,200,Thread Group_Prod1 1-1,true,881,1,1,798,1,0,INFPU07042,261
1520328234988,279,NoFileUpload N36_PE7474_Testcase5,200,Thread Group_Prod1 1-1,true,905,1,1,279,1,0,INFPU07042,0
1520328235313,267,NoFileUpload N37_PE7474_Testcase6,200,Thread Group_Prod1 1-1,true,895,1,1,267,1,0,INFPU07042,0
1520328235592,5022,FileUpload F40_PE7474,200,Thread Group_Prod1 1-1,true,4224,1,1,5021,1,0,INFPU07042,0
1520328240628,1016,NoFileUpload N38_PE7689_RefTable,200,Thread Group_Prod1 1-1,true,942,1,1,1016,1,0,INFPU07042,253
1520328241660,762,NoFileUpload N39_PE7440_ISBLANK_ImpactedbyComment,200,Thread Group_Prod1 1-1,true,1070,1,1,762,1,0,INFPU07042,0
1520328242436,266,NoFileUpload N40_PE7440_ISNOTBLANK_LENGTH_ImpactedbyComment,200,Thread Group_Prod1 1-1,true,954,1,1,266,1,0,INFPU07042,0
1520328242714,835,FileUpload F41_PE5679_EqualToWithAllBlank_POSCODE=2,200,Thread Group_Prod1 1-1,false,2838,1,1,834,1,1,INFPU07042,268
1520328243563,358,FileUpload F42_PE5679_3 Null string and 1 Blank_POSCODE=2,200,Thread Group_Prod1 1-1,false,2669,1,1,357,1,1,INFPU07042,0
1520328243933,509,FileUpload F43_PE5679_2 Null String and 2 Blank_POSCODE=2,200,Thread Group_Prod1 1-1,true,2871,1,1,508,1,0,INFPU07042,0
1520328244458,602,FileUpload F44_PE5679_1 Null String_1Data_2 Blank_POSCODE=2,200,Thread Group_Prod1 1-1,false,1746,1,1,601,1,1,INFPU07042,0
1520328245082,1550,FileUpload F45_PE5679_NoBlanksNoNullAllUnique_POSCODE=2,200,Thread Group_Prod1 1-1,false,3240,1,1,1549,1,1,INFPU07042,279
1520328246645,780,FileUpload F46_PE5679_3samedata_1Blank_POSCODE=2,200,Thread Group_Prod1 1-1,false,2662,1,1,780,1,1,INFPU07042,0
1520328247441,1822,FileUpload F47_PE5679_POSCODEGreaterThan2,200,Thread Group_Prod1 1-1,false,2841,1,1,1821,1,1,INFPU07042,252
1520328249276,614,FileUpload F48_PE5679_POSCODEGreaterThanEqualTo2,200,Thread Group_Prod1 1-1,false,1747,1,1,614,1,1,INFPU07042,0
1520328249902,1774,FileUpload F49_PE5679_LessThan,200,Thread Group_Prod1 1-1,false,2461,1,1,1773,1,1,INFPU07042,267
1520328251688,753,FileUpload F50_PE5679_LessThanEqualTo1,200,Thread Group_Prod1 1-1,false,2838,1,1,753,1,1,INFPU07042,0
1520328252454,8625,FileUpload F52_PE7724_CSV_ref,200,Thread Group_Prod1 1-1,true,21368,1,1,7871,1,0,INFPU07042,271
1520328261095,8627,FileUpload F52_PE7724_Excel_ValidationMsg,200,Thread Group_Prod1 1-1,false,18269,1,1,7881,1,1,INFPU07042,347
1520328269737,5603,FileUpload F53_PE7056_uploadMultipleFile_TBC for strict or loose_Shuffle,200,Thread Group_Prod1 1-1,false,4196,1,1,5603,1,1,INFPU07042,267
1520328275396,1780,NoFileUpload N41_PE7056_validateAggregates_Fix,200,Thread Group_Prod1 1-1,false,812,1,1,1780,1,1,INFPU07042,264
1520328277213,740,NoFileUpload N42_7056_performDefaultActions_Correct as per new code,200,Thread Group_Prod1 1-1,true,674,1,1,740,1,0,INFPU07042,0
1520328278001,2287,NoFileUpload N43_7056_crossSectionChecks,200,Thread Group_Prod1 1-1,true,1316,1,1,2286,1,0,INFPU07042,274
1520328280339,1684,NoFileUpload N44_PE7241_EmailValidation -withInvalidAndValidEmailIdInDimension,200,Thread Group_Prod1 1-1,true,858,1,1,1684,1,0,INFPU07042,261
1520328282066,700,NoFileUpload N45_PE7241_EmailValidation-withAllInvalidEmailIdInDimension,200,Thread Group_Prod1 1-1,true,884,1,1,700,1,0,INFPU07042,0
1520328282791,1676,NoFileUpload N46_PE7241_EmailValidation -withNullStringAndBlankEmailIdInDimension,200,Thread Group_Prod1 1-1,true,853,1,1,1676,1,0,INFPU07042,272
1520328284506,845,NoFileUpload N47_PE7241_EmailValidation_withAllBlankEmailIdInDimension,200,Thread Group_Prod1 1-1,true,832,1,1,845,1,0,INFPU07042,0
1520328285401,1628,NoFileUpload N48_PE7241_EmailValidation_withAllEmailIdAsNullStringInDimension,200,Thread Group_Prod1 1-1,true,848,1,1,1628,1,0,INFPU07042,259
1520328287047,664,NoFileUpload N49_PE7241_EmailValidation_withAllValidEmailIdInDimension,200,Thread Group_Prod1 1-1,true,876,1,1,664,1,0,INFPU07042,0
1520328287722,1786,NoFileUpload N50_PE7241_PhoneValidation_withAllBlankPhoneNumberInDimension,200,Thread Group_Prod1 1-1,true,795,1,1,1786,1,0,INFPU07042,251
1520328289524,706,NoFileUpload N51_PE7241_PhoneValidation_withAllInvalidPhoneNumberInDimension,200,Thread Group_Prod1 1-1,true,897,1,1,706,1,0,INFPU07042,0
1520328290252,1858,NoFileUpload N52_PE7241_PhoneValidation_withAllNullStringAndBlankPhoneNumberInDimension,200,Thread Group_Prod1 1-1,true,813,1,1,1858,1,0,INFPU07042,264
1520328292121,838,NoFileUpload N53_PE7241_PhoneValidation_withAllNullStringPhoneNumberInDimension,200,Thread Group_Prod1 1-1,true,841,1,1,837,1,0,INFPU07042,0
1520328292975,1619,NoFileUpload N54_PE7241_PhoneValidation_withAllValidPhoneNumberInDimension,200,Thread Group_Prod1 1-1,true,879,1,1,1619,1,0,INFPU07042,255
1520328294604,873,NoFileUpload N55_PE7241_PhoneValidation_withValidAndInvalidPhoneNumberInDimension,200,Thread Group_Prod1 1-1,true,872,1,1,872,1,0,INFPU07042,0
1520328295489,1961,NoFileUpload N56_PE7241_RequiredValidation__withAllNullStringInDimension,200,Thread Group_Prod1 1-1,true,872,1,1,1960,1,0,INFPU07042,272
1520328297462,927,NoFileUpload N57_PE7241_RequiredValidation__withAllValidValuesInDimension,200,Thread Group_Prod1 1-1,true,858,1,1,926,1,0,INFPU07042,0
1520328298400,1797,NoFileUpload N58_PE7241_RequiredValidation_withAllblankValuesInDimension ,200,Thread Group_Prod1 1-1,true,869,1,1,1797,1,0,INFPU07042,259
1520328300209,726,"NoFileUpload N59_PE7241_RequiredValidation_WithNullString,BlankAndValuesInDimension",200,Thread Group_Prod1 1-1,true,884,1,1,725,1,0,INFPU07042,0
1520328300950,2024,NoFileUpload N60_PE7241_RequiredValidation_WithNullStringlAndBlankInDimension,200,Thread Group_Prod1 1-1,true,875,1,1,2022,1,0,INFPU07042,271
1520328303007,1830,NoFileUpload N61_PE7241_RequiredValidation_WithValidAndInvalidValue,200,Thread Group_Prod1 1-1,true,879,1,1,1830,1,0,INFPU07042,258
1520328304855,769,NoFileUpload N62_PE7241_CheckBoxes_UploadMultipleFile,200,Thread Group_Prod1 1-1,true,805,1,1,769,1,0,INFPU07042,0
1520328305636,2066,NoFileUpload N63_PE7241_Dimension_CrossSection,200,Thread Group_Prod1 1-1,true,870,1,1,2065,1,0,INFPU07042,247
1520328307726,1667,NoFileUpload N64_PE7241_MDA_Dimension,200,Thread Group_Prod1 1-1,true,857,1,1,1666,1,0,INFPU07042,247
1520328309410,6832,FileUpload F54_PE-7257_AllValidDateAndDoubleValue(Positive scenario),200,Thread Group_Prod1 1-1,true,19169,1,1,6074,1,0,INFPU07042,0
1520328316246,7183,FileUpload F55_PE-7257_AllValidAndInvalidDateAndDoubleValue(Negative scenario),200,Thread Group_Prod1 1-1,true,18690,1,1,6261,1,0,INFPU07042,261
1520328323430,2777,NoFileUpload N65_PE7506_crosssection_with multiple combination for LPALL_399A,200,Thread Group_Prod1 1-1,true,1319,1,1,2777,1,0,INFPU07042,324
1520328326224,2304,NoFileUpload N66_PE7506_crosssection_with 3 Dimensions for LPALL_399A,200,Thread Group_Prod1 1-1,true,1264,1,1,2304,1,0,INFPU07042,251
1520328328545,2275,"NoFileUpload N67_PE7506_crosssection_13LATAM_01"": ""Y""",200,Thread Group_Prod1 1-1,true,1235,1,1,2275,1,0,INFPU07042,290
1520328330848,2109,"NoFileUpload N68_PE7506_crosssection_ EE_group_13LATAM_01"": ""N""",200,Thread Group_Prod1 1-1,true,1060,1,1,2109,1,0,INFPU07042,247
1520328332982,2655,NoFileUpload N69_PE7506_crosssection_when  EE_group_13LATAM is not present,200,Thread Group_Prod1 1-1,true,1032,1,1,2655,1,0,INFPU07042,253
1520328335671,2312,NoFileUpload N70_PE7506_crosssection_with Dimension for LPALL_399A,200,Thread Group_Prod1 1-1,true,1316,1,1,2312,1,0,INFPU07042,244
1520328338004,2457,NoFileUpload N71_PE7506_crosssection_with Dimension for LPALL_399A 1 as Y others as N,200,Thread Group_Prod1 1-1,true,1264,1,1,2457,1,0,INFPU07042,255
1520328340474,2396,FileUpload F56_PE5415_MultiSheetSuccess,200,Thread Group_Prod1 1-1,true,3621,1,1,2395,1,0,INFPU07042,348
1520328342899,2614,FileUpload F57_PE5415_MultiSheetBadRequest_Ignore,400,Thread Group_Prod1 1-1,false,327,1,1,2614,1,1,INFPU07042,284
1520328345515,2400,FileUpload F58_PE5415_MultiSheetCorrectRequest,200,Thread Group_Prod1 1-1,true,3494,1,1,2399,1,0,INFPU07042,244
1520328347930,2521,FileUpload F59_PE5415_Step1SingleSheetBadReq_Ignore,422,Thread Group_Prod1 1-1,false,1282,1,1,2521,1,1,INFPU07042,285
1520328350464,2555,FileUpload F60_PE5415_Step1SingleSheetCorrectReq,200,Thread Group_Prod1 1-1,true,4665,1,1,2554,1,0,INFPU07042,256
1520328353052,1696,FileUpload F61_PE5415_Step3MappingCompanyJson,200,Thread Group_Prod1 1-1,true,1611,1,1,1696,1,0,INFPU07042,279
1520328354764,1461,FileUpload F62_PE5415_Step3MappingCompanyExcel,200,Thread Group_Prod1 1-1,true,1625,1,1,1461,1,0,INFPU07042,0
1520328356238,3332,FileUpload F63_PE5415_Step3MappingColumnExcel,200,Thread Group_Prod1 1-1,true,4466,1,1,3332,1,0,INFPU07042,280
1520328359585,1706,FileUpload F64_PE5415_Step3MappingColumnJson,200,Thread Group_Prod1 1-1,false,2585,1,1,1705,1,1,INFPU07042,246
1520328361321,860,FileUpload F65_PE5415_Step3MappingColumnJsonWithoutCountry,200,Thread Group_Prod1 1-1,true,2131,1,1,859,1,0,INFPU07042,0
1520328362214,1726,FileUpload F66_PE5415_Step3MappingColumnJsonWithCountry,200,Thread Group_Prod1 1-1,true,1611,1,1,1725,1,0,INFPU07042,254
1520328363960,13694,FileUpload F67_PE8315_Fix,200,Thread Group_Prod1 1-1,false,38517,1,1,12106,1,1,INFPU07042,0
1520328377672,3051,FileUpload F68_PE8037_Fix,200,Thread Group_Prod1 1-1,false,2156,1,1,3051,1,1,INFPU07042,253
1520328380735,4625,NoFileUpload N72_ PE5668 T1,200,Thread Group_Prod1 1-1,true,702,1,1,4625,1,0,INFPU07042,249
1520328385372,1905,NoFileUpload N80_PE7989_Req_NonNumericData_withAllwrongcolumn_MDA,200,Thread Group_Prod1 1-1,true,678,1,1,1905,1,0,INFPU07042,253
1520328387301,907,NoFileUpload N81_PE7989_Req_NonNumericData_withAllrightcolumn_MDA,200,Thread Group_Prod1 1-1,true,846,1,1,907,1,0,INFPU07042,0
1520328388252,2289,NoFileUpload N82_PE7989_Req_NonNumericData_with1wrongcolumn_MDA,200,Thread Group_Prod1 1-1,true,849,1,1,2289,1,0,INFPU07042,318
1520328390563,1919,NoFileUpload N83_PE7989_uploadMultipleFile,200,Thread Group_Prod1 1-1,true,835,1,1,1918,1,0,INFPU07042,253
1520328392494,972,NoFileUpload N84_400 and 500 Error_crossSectionChecks,200,Thread Group_Prod1 1-1,true,619,1,1,972,1,0,INFPU07042,0
1520328393508,2340,NoFileUpload N85_400 and 500 Error_crossSectionChecks,200,Thread Group_Prod1 1-1,true,648,1,1,2340,1,0,INFPU07042,250
1520328395859,1969,NoFileUpload N86_400 and 500 Error_crossSectionChecks,200,Thread Group_Prod1 1-1,true,647,1,1,1969,1,0,INFPU07042,250
1520328397840,926,NoFileUpload N87_400 and 500 Error_crossSectionChecks,200,Thread Group_Prod1 1-1,true,501,1,1,926,1,0,INFPU07042,0
1520328398776,2217,NoFileUpload N88_400 and 500 Error_crossSectionChecks,200,Thread Group_Prod1 1-1,true,619,1,1,2214,1,0,INFPU07042,249
1520328401005,2974,NoFileUpload N89_PE8186_to Add assertion,200,Thread Group_Prod1 1-1,true,944,1,1,2973,1,0,INFPU07042,253
1520328404010,2113,NoFileUpload N90_PE8032_SyntaxError1_Fix,200,Thread Group_Prod1 1-1,false,674,1,1,2112,1,1,INFPU07042,247
1520328406145,2058,NoFileUpload N91_PE8032_SyntaxError2_Fix,200,Thread Group_Prod1 1-1,false,674,1,1,2058,1,1,INFPU07042,256
1520328408228,2137,NoFileUpload N92_PE8032_InvalidColumn,200,Thread Group_Prod1 1-1,true,758,1,1,2132,1,0,INFPU07042,258
1520328410426,2118,NoFileUpload N93_PE7771_Exp,200,Thread Group_Prod1 1-1,true,674,1,1,2117,1,0,INFPU07042,256
1520328412566,3059,NoFileUpload N94_PE7771_Range,200,Thread Group_Prod1 1-1,true,917,1,1,3059,1,0,INFPU07042,256
1520328415665,14960,NoFileUpload N94_PE7771_Added Scenario,200,Thread Group_Prod1 1-1,true,6106,1,1,14957,1,0,INFPU07042,251
1520328430673,3034,NoFileUpload N95_PE8269 and 8397_CSC_MDA_ClearValue_Fix,200,Thread Group_Prod1 1-1,false,582,1,1,3034,1,1,INFPU07042,246
1520328433718,3061,NoFileUpload N96_PE8269 and 8397_CSC_OtherThanClearValue,200,Thread Group_Prod1 1-1,true,797,1,1,3061,1,0,INFPU07042,256
1520328436820,3152,NoFileUpload N97_PE8269 and 8397_UMF_NonMDA,200,Thread Group_Prod1 1-1,true,838,1,1,3151,1,0,INFPU07042,258
1520328440008,3293,NoFileUpload N98_PE8269 and 8397_PDA_MDA_ClearValue_Fix,200,Thread Group_Prod1 1-1,false,576,1,1,3293,1,1,INFPU07042,256
1520328443314,3450,NoFileUpload N99_PE8269 and 8397_PDA_OtherThanClearValue,200,Thread Group_Prod1 1-1,true,789,1,1,3450,1,0,INFPU07042,259
1520328446797,30776,FileUpload F69_PE8584_Null Issue ,200,Thread Group_Prod1 1-1,true,14518,1,1,30771,1,0,INFPU07042,271
1520328477591,4375,FileUpload F70_PE8584,200,Thread Group_Prod1 1-1,false,16930,1,1,3360,1,1,INFPU07042,331
1520328482014,2059,FileUpload F71_PE8584,200,Thread Group_Prod1 1-1,true,2020,1,1,2058,1,0,INFPU07042,245
1520328484088,2413,FileUpload F72_PE8584,200,Thread Group_Prod1 1-1,true,2020,1,1,2411,1,0,INFPU07042,251
1520328486512,32892,FileUpload F73_PE8584,200,Thread Group_Prod1 1-1,true,14379,1,1,32887,1,0,INFPU07042,260
1520328519451,55156,FileUpload F74_PE8584,200,Thread Group_Prod1 1-1,true,14383,1,1,55151,1,0,INFPU07042,247
1520328574649,14527,FileUpload F75_PE8584,200,Thread Group_Prod1 1-1,true,18913,1,1,13341,1,0,INFPU07042,333
1520328589191,38058,FileUpload F76_PE8584,200,Thread Group_Prod1 1-1,false,174366,1,1,31220,1,1,INFPU07042,250
1520328627270,25013,FileUpload F77_PE8584,200,Thread Group_Prod1 1-1,true,56603,1,1,21144,1,0,INFPU07042,245
1520328652308,4526,FileUpload F78_PE8584,200,Thread Group_Prod1 1-1,true,6286,1,1,4523,1,0,INFPU07042,300
1520328656852,3068,NoFileUpload N100_PE8916,200,Thread Group_Prod1 1-1,false,855,1,1,3068,1,1,INFPU07042,249
1520328659960,4359,NoFileUpload N101_POSCODE,200,Thread Group_Prod1 1-1,false,661,1,1,4359,1,1,INFPU07042,328
1520328664349,24728,FileUpload F79_PE8951_P1,200,Thread Group_Prod1 1-1,true,34584,1,1,21674,1,0,INFPU07042,269
1520328689084,24488,FileUpload F80_PE8951_P2,200,Thread Group_Prod1 1-1,true,30843,1,1,22617,1,0,INFPU07042,257
1520328713575,13380,FileUpload F81_PE8951_P3,200,Thread Group_Prod1 1-1,true,30851,1,1,11993,1,0,INFPU07042,260
1520328726959,6866,FileUpload F82_PE8951_P4,200,Thread Group_Prod1 1-1,true,30843,1,1,5951,1,0,INFPU07042,262
1520328733826,4234,FileUpload F83_PE8951_N1,400,Thread Group_Prod1 1-1,true,389,1,1,4234,1,0,INFPU07042,256
1520328738077,3487,FileUpload F84_PE8951_N2,400,Thread Group_Prod1 1-1,true,389,1,1,3486,1,0,INFPU07042,255
1520328741578,3355,FileUpload F85_PE8951_N3,400,Thread Group_Prod1 1-1,true,388,1,1,3354,1,0,INFPU07042,251
1520328744933,3832,FileUpload F86_PE8951_N4,400,Thread Group_Prod1 1-1,true,388,1,1,3831,1,0,INFPU07042,323
1520328748765,5191,FileUpload F88_8976,200,Thread Group_Prod1 1-1,true,1564,1,1,5191,1,0,INFPU07042,270
1520328753958,4617,FileUpload F87_8976,422,Thread Group_Prod1 1-1,true,1187,1,1,4617,1,0,INFPU07042,248
