timeStamp,elapsed,label,responseCode,threadName,success,bytes,grpThreads,allThreads,Latency,SampleCount,ErrorCount,Hostname,Connect
1520241864152,4024,FileUpload F1_PE-8157_Ignore,200,Thread Group_Prod1 1-1,false,6260,1,1,4022,1,1,INFPU07042,397
1520241868813,1067,FileUpload F1_PE-8110_ErrorCell,200,Thread Group_Prod1 1-1,true,1571,1,1,1067,1,0,INFPU07042,253
1520241869986,3808,FileUpload F2_PE-8110_ErrorCell_Ignore,422,Thread Group_Prod1 1-1,false,650879,1,1,1610,1,1,INFPU07042,0
1520241873888,3672,FileUpload F3_PE-8110_ErrorCell_Ignore,400,Thread Group_Prod1 1-1,false,385,1,1,3672,1,1,INFPU07042,246
1520241877611,993,FileUpload F4_PE-5678_SequentialWithOtherValidations,200,Thread Group_Prod1 1-1,true,5471,1,1,991,1,0,INFPU07042,252
1520241878655,259,NoFileUpload N1_PE-5678_LOOK_UP_CHECK1,200,Thread Group_Prod1 1-1,false,1072,1,1,259,1,1,INFPU07042,0
1520241878936,259,NoFileUpload N1_PE-5678_SequentialWithOtherValidations,200,Thread Group_Prod1 1-1,true,994,1,1,259,1,0,INFPU07042,0
1520241879215,424,NoFileUpload N2_PE-5678_SequentialWithOtherValidations,200,Thread Group_Prod1 1-1,true,959,1,1,424,1,0,INFPU07042,0
1520241879720,2231,"NoFileUpload_Null Validation_crossSectionChecks_LPALL_566 is """"",200,Thread Group_Prod1 1-1,true,6764,1,1,2229,1,0,INFPU07042,259
1520241882020,2600,NoFileUpload_Null Validation_crossSectionChecks_LPALL_566 is null,200,Thread Group_Prod1 1-1,true,6760,1,1,2599,1,0,INFPU07042,251
1520241884663,2157,"NoFileUpload_Null Validation_crossSectionChecks_LPALL_566 is ""null""",200,Thread Group_Prod1 1-1,true,6903,1,1,2155,1,0,INFPU07042,249
1520241886868,2045,"NoFileUpload_Null Validation_crossSectionChecks_LPALL_566 is ""   """,200,Thread Group_Prod1 1-1,true,6767,1,1,2044,1,0,INFPU07042,246
1520241888983,1980,NoFileUpload N3_PE-7172MDA,200,Thread Group_Prod1 1-1,true,664,1,1,1980,1,0,INFPU07042,248
1520241891047,1202,FileUpload F5_PE7172_Fix,200,Thread Group_Prod1 1-1,true,4873,1,1,1201,1,0,INFPU07042,245
1520241892295,1281,NoFileUpload N4_PE-8032MDA,200,Thread Group_Prod1 1-1,true,664,1,1,1281,1,0,INFPU07042,0
1520241893619,2585,NoFileUpload N5_PE-8070,200,Thread Group_Prod1 1-1,true,881,1,1,2585,1,0,INFPU07042,254
1520241896243,1628,NoFileUpload N73_PE5668 T2_Temp,200,Thread Group_Prod1 1-1,true,609,1,1,1627,1,0,INFPU07042,246
1520241897913,257,NoFileUpload N74_PE5668 T3_Temp,200,Thread Group_Prod1 1-1,true,753,1,1,257,1,0,INFPU07042,0
1520241898233,251,NoFileUpload N75_PE5668 T4_Temp,200,Thread Group_Prod1 1-1,true,706,1,1,251,1,0,INFPU07042,0
1520241898520,1255,NoFileUpload N76_PE5668 T5_Temp,200,Thread Group_Prod1 1-1,true,720,1,1,1254,1,0,INFPU07042,251
1520241899818,257,NoFileUpload N78_PE5668 T7_Temp,200,Thread Group_Prod1 1-1,true,705,1,1,257,1,0,INFPU07042,0
1520241900115,262,NoFileUpload N79_PE5668 T8_Temp,200,Thread Group_Prod1 1-1,true,607,1,1,261,1,0,INFPU07042,0
1520241900426,1176,FileUpload F6_PE-7257_US_CSV_Shuffle,200,Thread Group_Prod1 1-1,false,4349,1,1,1176,1,1,INFPU07042,0
1520241901641,2142,FileUpload F7_PE-7257_US_Excel_Shuffle,200,Thread Group_Prod1 1-1,false,4532,1,1,2142,1,1,INFPU07042,246
1520241903857,1788,NoFileUpload N6_PE7978,200,Thread Group_Prod1 1-1,true,6632,1,1,1787,1,0,INFPU07042,250
1520241905717,255,NoFileUpload N7_PE7954,200,Thread Group_Prod1 1-1,true,727,1,1,255,1,0,INFPU07042,0
1520241906029,1248,NoFileUpload N77_PE5668 T6,200,Thread Group_Prod1 1-1,true,716,1,1,1248,1,0,INFPU07042,249
1520241907319,258,FileUpload F8_PE7999_Ignore since files are identical,422,Thread Group_Prod1 1-1,false,1282,1,1,258,1,1,INFPU07042,0
1520241907590,260,NoFileUpload N8_ PE7795,200,Thread Group_Prod1 1-1,true,717,1,1,260,1,0,INFPU07042,0
1520241907888,258,NoFileUpload N9_PE7046_AU_Comp2,200,Thread Group_Prod1 1-1,true,914,1,1,258,1,0,INFPU07042,0
1520241908194,758,NoFileUpload N10_PE7046_US_Comp1,200,Thread Group_Prod1 1-1,true,910,1,1,758,1,0,INFPU07042,249
1520241908972,259,NoFileUpload N11_PE7046_IN_Comp1,200,Thread Group_Prod1 1-1,true,910,1,1,259,1,0,INFPU07042,0
1520241909260,258,NoFileUpload N12_PE7046_ZA_Comp2,200,Thread Group_Prod1 1-1,true,914,1,1,257,1,0,INFPU07042,0
1520241909552,762,NoFileUpload N13_PE7773_NUM_EMP is 7_Fix,200,Thread Group_Prod1 1-1,false,1099,1,1,762,1,1,INFPU07042,0
1520241910385,1499,NoFileUpload N14_PE7773_NUM_EMP is 8.1_boundry is 8,200,Thread Group_Prod1 1-1,true,1100,1,1,1499,1,0,INFPU07042,248
1520241911943,285,NoFileUpload N15_PE7773_NUM_EMP is 9_boundry is 8,200,Thread Group_Prod1 1-1,true,1099,1,1,285,1,0,INFPU07042,0
1520241912244,357,FileUpload F9_PE5216_ImpactedbyComment,200,Thread Group_Prod1 1-1,true,1345,1,1,357,1,0,INFPU07042,0
1520241912647,764,NoFileUpload N16_PE7044_expression,200,Thread Group_Prod1 1-1,true,674,1,1,764,1,0,INFPU07042,254
1520241913414,512,NoFileUpload N17_PE7044_range,200,Thread Group_Prod1 1-1,true,917,1,1,511,1,0,INFPU07042,0
1520241914016,259,NoFileUpload N18_PE7044_rangeValidationRefTable,200,Thread Group_Prod1 1-1,true,912,1,1,259,1,0,INFPU07042,0
1520241914332,259,NoFileUpload N19_PE7044_rangeValidationRefTable_dimensions,200,Thread Group_Prod1 1-1,true,942,1,1,259,1,0,INFPU07042,0
1520241914650,2045,FileUpload F10_PE5691_1Record_Ignore,400,Thread Group_Prod1 1-1,false,327,1,1,2045,1,1,INFPU07042,252
1520241916742,2045,FileUpload F11_PE5691_1Record_Ignore,400,Thread Group_Prod1 1-1,false,327,1,1,2045,1,1,INFPU07042,253
1520241918814,1092,FileUpload F12_PE6027_Ref Table,200,Thread Group_Prod1 1-1,true,2193,1,1,1092,1,0,INFPU07042,264
1520241919996,550,FileUpload F13_PE6030,200,Thread Group_Prod1 1-1,true,3289,1,1,550,1,0,INFPU07042,0
1520241920636,270,NoFileUpload N20_PE7033,200,Thread Group_Prod1 1-1,true,910,1,1,269,1,0,INFPU07042,0
1520241920910,752,NoFileUpload N21_PE7314,200,Thread Group_Prod1 1-1,true,771,1,1,751,1,0,INFPU07042,249
1520241921704,1941,FileUpload F14_PE7071_1Record_Shuffle,200,Thread Group_Prod1 1-1,false,4188,1,1,1941,1,1,INFPU07042,0
1520241923699,2437,FileUpload F15_PE7071_1Record,200,Thread Group_Prod1 1-1,false,4749,1,1,2436,1,1,INFPU07042,248
1520241926182,2198,FileUpload F16_PE7071_1Record,200,Thread Group_Prod1 1-1,false,4188,1,1,2197,1,1,INFPU07042,250
1520241928437,2354,FileUpload F17_PE7071_1Record,400,Thread Group_Prod1 1-1,false,360,1,1,2353,1,1,INFPU07042,348
1520241930838,2258,FileUpload F18_PE7611,200,Thread Group_Prod1 1-1,true,1989,1,1,2257,1,0,INFPU07042,267
1520241933145,2170,FileUpload F19_PE7611,200,Thread Group_Prod1 1-1,false,1790,1,1,2170,1,1,INFPU07042,260
1520241935369,2186,FileUpload F20_PE7611,200,Thread Group_Prod1 1-1,true,1913,1,1,2185,1,0,INFPU07042,260
1520241937597,2195,FileUpload F21_PE7611,200,Thread Group_Prod1 1-1,true,1989,1,1,2195,1,0,INFPU07042,263
1520241939840,2175,FileUpload F22_PE7611,200,Thread Group_Prod1 1-1,false,2118,1,1,2174,1,1,INFPU07042,259
1520241942059,2166,FileUpload F23_PE7611,200,Thread Group_Prod1 1-1,false,1995,1,1,2166,1,1,INFPU07042,257
1520241944274,2122,FileUpload F24_PE7611,200,Thread Group_Prod1 1-1,false,1995,1,1,2122,1,1,INFPU07042,249
1520241946445,2406,FileUpload F25_PE7611,200,Thread Group_Prod1 1-1,false,1883,1,1,2406,1,1,INFPU07042,254
1520241948900,2139,FileUpload F26_PE7611,200,Thread Group_Prod1 1-1,false,1884,1,1,2139,1,1,INFPU07042,255
1520241951090,2131,FileUpload F27_PE7611,200,Thread Group_Prod1 1-1,true,2119,1,1,2130,1,0,INFPU07042,252
1520241953260,799,FileUpload F28_6713CSV_SkipLastBlankRow,200,Thread Group_Prod1 1-1,true,1752,1,1,799,1,0,INFPU07042,256
1520241954061,287,FileUpload F29_6713CSV_SkipInitialRow,200,Thread Group_Prod1 1-1,true,1461,1,1,287,1,0,INFPU07042,0
1520241954395,281,FileUpload F30_6713CSV_SkipMiddleBlankRows,200,Thread Group_Prod1 1-1,true,2055,1,1,281,1,0,INFPU07042,0
1520241954724,537,FileUpload F31_6713Excel_SkipInitialRow,200,Thread Group_Prod1 1-1,true,1461,1,1,537,1,0,INFPU07042,0
1520241955309,1068,FileUpload F32_6713Excel_SkipLastBlankRow,200,Thread Group_Prod1 1-1,true,1752,1,1,1067,1,0,INFPU07042,260
1520241956426,541,FileUpload F33_6713Excel_SkipMiddleRow,200,Thread Group_Prod1 1-1,true,2055,1,1,541,1,0,INFPU07042,0
1520241956998,266,NoFileUpload N22_PE7631_metaData,200,Thread Group_Prod1 1-1,true,604,1,1,266,1,0,INFPU07042,0
1520241957303,266,NoFileUpload N23_PE7631_metaData,200,Thread Group_Prod1 1-1,true,609,1,1,266,1,0,INFPU07042,0
1520241957595,792,NoFileUpload N24_PE7631_Autocorrect,200,Thread Group_Prod1 1-1,true,836,1,1,792,1,0,INFPU07042,262
1520241958435,267,NoFileUpload N25_PE7631,200,Thread Group_Prod1 1-1,true,830,1,1,267,1,0,INFPU07042,0
1520241958746,269,NoFileUpload N26_7045RawJson_NonNumerciData,200,Thread Group_Prod1 1-1,true,851,1,1,269,1,0,INFPU07042,0
1520241959094,268,NoFileUpload N27_7045RawJson_SkipBlankCols,200,Thread Group_Prod1 1-1,true,771,1,1,268,1,0,INFPU07042,0
1520241959402,267,NoFileUpload N28_7045RawJson_SkipNonNumericCols,200,Thread Group_Prod1 1-1,true,675,1,1,267,1,0,INFPU07042,0
1520241959706,789,NoFileUpload N29_7045RawJson_WithDimesion,200,Thread Group_Prod1 1-1,true,853,1,1,789,1,0,INFPU07042,272
1520241960537,260,NoFileUpload N30_7045RawJson_SingleNonBlankValue,200,Thread Group_Prod1 1-1,true,620,1,1,260,1,0,INFPU07042,0
1520241960843,262,NoFileUpload N31_7045RawJson_WithOtherValidation,200,Thread Group_Prod1 1-1,true,908,1,1,262,1,0,INFPU07042,0
1520241961146,281,FileUpload F34_PE7045_7045CSV_SimpleSequentialCheck,200,Thread Group_Prod1 1-1,true,2040,1,1,280,1,0,INFPU07042,0
1520241961458,543,FileUpload F35_PE7045_7045Excel_SimpleSequentialCheck,200,Thread Group_Prod1 1-1,true,2028,1,1,543,1,0,INFPU07042,0
1520241962045,806,FileUpload F36_PE7045_7045CSV_SkipBlankColumn,200,Thread Group_Prod1 1-1,true,1727,1,1,806,1,0,INFPU07042,264
1520241962891,568,FileUpload F37_PE7045_7045EXCEL_SkipBlankColumn,200,Thread Group_Prod1 1-1,true,2070,1,1,567,1,0,INFPU07042,0
1520241963507,286,FileUpload F38_PE7045_7045CSV_SkipNonNumericData,200,Thread Group_Prod1 1-1,true,1628,1,1,286,1,0,INFPU07042,0
1520241963831,638,FileUpload F39_PE7045_7045EXCEL_SkipNonNumericData,200,Thread Group_Prod1 1-1,true,2584,1,1,638,1,0,INFPU07042,0
1520241964519,778,NoFileUpload N32_PE7474_Testcase1,200,Thread Group_Prod1 1-1,true,900,1,1,777,1,0,INFPU07042,257
1520241965342,266,NoFileUpload N33_PE7474_Testcase2,200,Thread Group_Prod1 1-1,true,903,1,1,266,1,0,INFPU07042,0
1520241965639,262,NoFileUpload N34_PE7474_Testcase3,200,Thread Group_Prod1 1-1,true,815,1,1,262,1,0,INFPU07042,0
1520241965951,272,NoFileUpload N35_PE7474_Testcase4,200,Thread Group_Prod1 1-1,true,881,1,1,272,1,0,INFPU07042,0
1520241966264,273,NoFileUpload N36_PE7474_Testcase5,200,Thread Group_Prod1 1-1,true,905,1,1,272,1,0,INFPU07042,0
1520241966551,739,NoFileUpload N37_PE7474_Testcase6,200,Thread Group_Prod1 1-1,true,895,1,1,739,1,0,INFPU07042,243
1520241967338,3965,FileUpload F40_PE7474,200,Thread Group_Prod1 1-1,true,4224,1,1,3964,1,0,INFPU07042,0
1520241971349,1005,NoFileUpload N38_PE7689_RefTable,200,Thread Group_Prod1 1-1,true,942,1,1,1004,1,0,INFPU07042,251
1520241972394,757,NoFileUpload N39_PE7440_ISBLANK_ImpactedbyComment,200,Thread Group_Prod1 1-1,true,1075,1,1,756,1,0,INFPU07042,0
1520241973191,272,NoFileUpload N40_PE7440_ISNOTBLANK_LENGTH_ImpactedbyComment,200,Thread Group_Prod1 1-1,true,954,1,1,272,1,0,INFPU07042,0
1520241973494,887,FileUpload F41_PE5679_EqualToWithAllBlank_POSCODE=2,200,Thread Group_Prod1 1-1,false,2838,1,1,886,1,1,INFPU07042,268
1520241974432,355,FileUpload F42_PE5679_3 Null string and 1 Blank_POSCODE=2,200,Thread Group_Prod1 1-1,false,2669,1,1,354,1,1,INFPU07042,0
1520241974830,350,FileUpload F43_PE5679_2 Null String and 2 Blank_POSCODE=2,200,Thread Group_Prod1 1-1,true,2871,1,1,349,1,0,INFPU07042,0
1520241975222,354,FileUpload F44_PE5679_1 Null String_1Data_2 Blank_POSCODE=2,200,Thread Group_Prod1 1-1,false,1746,1,1,354,1,1,INFPU07042,0
1520241975619,864,FileUpload F45_PE5679_NoBlanksNoNullAllUnique_POSCODE=2,200,Thread Group_Prod1 1-1,false,3240,1,1,863,1,1,INFPU07042,260
1520241976540,346,FileUpload F46_PE5679_3samedata_1Blank_POSCODE=2,200,Thread Group_Prod1 1-1,false,2662,1,1,346,1,1,INFPU07042,0
1520241976929,340,FileUpload F47_PE5679_POSCODEGreaterThan2,200,Thread Group_Prod1 1-1,false,2841,1,1,339,1,1,INFPU07042,0
1520241977313,349,FileUpload F48_PE5679_POSCODEGreaterThanEqualTo2,200,Thread Group_Prod1 1-1,false,1747,1,1,349,1,1,INFPU07042,0
1520241977696,835,FileUpload F49_PE5679_LessThan,200,Thread Group_Prod1 1-1,false,2461,1,1,834,1,1,INFPU07042,250
1520241978568,332,FileUpload F50_PE5679_LessThanEqualTo1,200,Thread Group_Prod1 1-1,false,2838,1,1,331,1,1,INFPU07042,0
1520241978936,2859,FileUpload F52_PE7724_CSV_ref,200,Thread Group_Prod1 1-1,true,21361,1,1,2523,1,0,INFPU07042,0
1520241981860,4650,FileUpload F52_PE7724_Excel_ValidationMsg,200,Thread Group_Prod1 1-1,false,18275,1,1,4342,1,1,INFPU07042,266
1520241986558,2787,FileUpload F53_PE7056_uploadMultipleFile_TBC for strict or loose_Shuffle,200,Thread Group_Prod1 1-1,false,4196,1,1,2787,1,1,INFPU07042,249
1520241989396,913,NoFileUpload N41_PE7056_validateAggregates_Fix,200,Thread Group_Prod1 1-1,false,807,1,1,913,1,1,INFPU07042,260
1520241990359,335,NoFileUpload N42_7056_performDefaultActions_Correct as per new code,200,Thread Group_Prod1 1-1,true,674,1,1,335,1,0,INFPU07042,0
1520241990705,684,NoFileUpload N43_7056_crossSectionChecks,200,Thread Group_Prod1 1-1,true,1316,1,1,684,1,0,INFPU07042,0
1520241991427,1170,NoFileUpload N44_PE7241_EmailValidation -withInvalidAndValidEmailIdInDimension,200,Thread Group_Prod1 1-1,true,858,1,1,1169,1,0,INFPU07042,328
1520241992631,419,NoFileUpload N45_PE7241_EmailValidation-withAllInvalidEmailIdInDimension,200,Thread Group_Prod1 1-1,true,884,1,1,419,1,0,INFPU07042,0
1520241993107,344,NoFileUpload N46_PE7241_EmailValidation -withNullStringAndBlankEmailIdInDimension,200,Thread Group_Prod1 1-1,true,853,1,1,344,1,0,INFPU07042,0
1520241993489,872,NoFileUpload N47_PE7241_EmailValidation_withAllBlankEmailIdInDimension,200,Thread Group_Prod1 1-1,true,832,1,1,872,1,0,INFPU07042,245
1520241994390,330,NoFileUpload N48_PE7241_EmailValidation_withAllEmailIdAsNullStringInDimension,200,Thread Group_Prod1 1-1,true,848,1,1,330,1,0,INFPU07042,0
1520241994758,333,NoFileUpload N49_PE7241_EmailValidation_withAllValidEmailIdInDimension,200,Thread Group_Prod1 1-1,true,876,1,1,328,1,0,INFPU07042,0
1520241995145,329,NoFileUpload N50_PE7241_PhoneValidation_withAllBlankPhoneNumberInDimension,200,Thread Group_Prod1 1-1,true,795,1,1,329,1,0,INFPU07042,0
1520241995522,927,NoFileUpload N51_PE7241_PhoneValidation_withAllInvalidPhoneNumberInDimension,200,Thread Group_Prod1 1-1,true,897,1,1,926,1,0,INFPU07042,252
1520241996490,343,NoFileUpload N52_PE7241_PhoneValidation_withAllNullStringAndBlankPhoneNumberInDimension,200,Thread Group_Prod1 1-1,true,813,1,1,342,1,0,INFPU07042,0
1520241996874,337,NoFileUpload N53_PE7241_PhoneValidation_withAllNullStringPhoneNumberInDimension,200,Thread Group_Prod1 1-1,true,836,1,1,337,1,0,INFPU07042,0
1520241997254,341,NoFileUpload N54_PE7241_PhoneValidation_withAllValidPhoneNumberInDimension,200,Thread Group_Prod1 1-1,true,879,1,1,340,1,0,INFPU07042,0
1520241997648,941,NoFileUpload N55_PE7241_PhoneValidation_withValidAndInvalidPhoneNumberInDimension,200,Thread Group_Prod1 1-1,true,872,1,1,941,1,0,INFPU07042,250
1520241998657,349,NoFileUpload N56_PE7241_RequiredValidation__withAllNullStringInDimension,200,Thread Group_Prod1 1-1,true,872,1,1,349,1,0,INFPU07042,0
1520241999055,349,NoFileUpload N57_PE7241_RequiredValidation__withAllValidValuesInDimension,200,Thread Group_Prod1 1-1,true,858,1,1,349,1,0,INFPU07042,0
1520241999444,355,NoFileUpload N58_PE7241_RequiredValidation_withAllblankValuesInDimension ,200,Thread Group_Prod1 1-1,true,869,1,1,354,1,0,INFPU07042,0
1520241999845,924,"NoFileUpload N59_PE7241_RequiredValidation_WithNullString,BlankAndValuesInDimension",200,Thread Group_Prod1 1-1,true,884,1,1,923,1,0,INFPU07042,254
1520242000807,338,NoFileUpload N60_PE7241_RequiredValidation_WithNullStringlAndBlankInDimension,200,Thread Group_Prod1 1-1,true,875,1,1,337,1,0,INFPU07042,0
1520242001189,348,NoFileUpload N61_PE7241_RequiredValidation_WithValidAndInvalidValue,200,Thread Group_Prod1 1-1,true,884,1,1,348,1,0,INFPU07042,0
1520242001566,346,NoFileUpload N62_PE7241_CheckBoxes_UploadMultipleFile,200,Thread Group_Prod1 1-1,true,805,1,1,345,1,0,INFPU07042,0
1520242001957,935,NoFileUpload N63_PE7241_Dimension_CrossSection,200,Thread Group_Prod1 1-1,true,870,1,1,934,1,0,INFPU07042,252
1520242002935,361,NoFileUpload N64_PE7241_MDA_Dimension,200,Thread Group_Prod1 1-1,true,857,1,1,361,1,0,INFPU07042,0
1520242003364,2405,FileUpload F54_PE-7257_AllValidDateAndDoubleValue(Positive scenario),200,Thread Group_Prod1 1-1,true,19162,1,1,2073,1,0,INFPU07042,0
1520242005767,3424,FileUpload F55_PE-7257_AllValidAndInvalidDateAndDoubleValue(Negative scenario),200,Thread Group_Prod1 1-1,true,18683,1,1,3085,1,0,INFPU07042,278
1520242009202,1313,NoFileUpload N65_PE7506_crosssection_with multiple combination for LPALL_399A,200,Thread Group_Prod1 1-1,true,1319,1,1,1313,1,0,INFPU07042,253
1520242010560,345,NoFileUpload N66_PE7506_crosssection_with 3 Dimensions for LPALL_399A,200,Thread Group_Prod1 1-1,true,1264,1,1,345,1,0,INFPU07042,0
1520242010929,351,"NoFileUpload N67_PE7506_crosssection_13LATAM_01"": ""Y""",200,Thread Group_Prod1 1-1,true,1235,1,1,350,1,0,INFPU07042,0
1520242011314,1281,"NoFileUpload N68_PE7506_crosssection_ EE_group_13LATAM_01"": ""N""",200,Thread Group_Prod1 1-1,true,1060,1,1,1281,1,0,INFPU07042,260
1520242012632,348,NoFileUpload N69_PE7506_crosssection_when  EE_group_13LATAM is not present,200,Thread Group_Prod1 1-1,true,1032,1,1,348,1,0,INFPU07042,0
1520242013019,350,NoFileUpload N70_PE7506_crosssection_with Dimension for LPALL_399A,200,Thread Group_Prod1 1-1,true,1316,1,1,350,1,0,INFPU07042,0
1520242013408,1255,NoFileUpload N71_PE7506_crosssection_with Dimension for LPALL_399A 1 as Y others as N,200,Thread Group_Prod1 1-1,true,1264,1,1,1254,1,0,INFPU07042,249
1520242014696,851,FileUpload F56_PE5415_MultiSheetSuccess,200,Thread Group_Prod1 1-1,true,3621,1,1,850,1,0,INFPU07042,0
1520242015589,1281,FileUpload F57_PE5415_MultiSheetBadRequest_Ignore,400,Thread Group_Prod1 1-1,false,327,1,1,1281,1,1,INFPU07042,261
1520242016871,715,FileUpload F58_PE5415_MultiSheetCorrectRequest,200,Thread Group_Prod1 1-1,true,3494,1,1,714,1,0,INFPU07042,0
1520242017610,1280,FileUpload F59_PE5415_Step1SingleSheetBadReq_Ignore,422,Thread Group_Prod1 1-1,false,1282,1,1,1280,1,1,INFPU07042,255
1520242018905,666,FileUpload F60_PE5415_Step1SingleSheetCorrectReq,200,Thread Group_Prod1 1-1,true,4665,1,1,664,1,0,INFPU07042,0
1520242019607,361,FileUpload F61_PE5415_Step3MappingCompanyJson,200,Thread Group_Prod1 1-1,true,1611,1,1,361,1,0,INFPU07042,0
1520242019990,1284,FileUpload F62_PE5415_Step3MappingCompanyExcel,200,Thread Group_Prod1 1-1,true,1625,1,1,1284,1,0,INFPU07042,256
1520242021316,688,FileUpload F63_PE5415_Step3MappingColumnExcel,200,Thread Group_Prod1 1-1,false,4466,1,1,687,1,1,INFPU07042,0
1520242022041,936,FileUpload F64_PE5415_Step3MappingColumnJson,200,Thread Group_Prod1 1-1,false,2585,1,1,936,1,1,INFPU07042,254
1520242023018,366,FileUpload F65_PE5415_Step3MappingColumnJsonWithoutCountry,200,Thread Group_Prod1 1-1,true,2131,1,1,365,1,0,INFPU07042,0
1520242023417,340,FileUpload F66_PE5415_Step3MappingColumnJsonWithCountry,200,Thread Group_Prod1 1-1,true,1611,1,1,340,1,0,INFPU07042,0
1520242023788,4642,FileUpload F67_PE8315_Fix,200,Thread Group_Prod1 1-1,false,38517,1,1,4299,1,1,INFPU07042,0
1520242028468,1413,FileUpload F68_PE8037_Fix,200,Thread Group_Prod1 1-1,false,2156,1,1,1413,1,1,INFPU07042,258
1520242029921,682,NoFileUpload N72_ PE5668 T1,200,Thread Group_Prod1 1-1,true,702,1,1,682,1,0,INFPU07042,0
1520242030646,920,NoFileUpload N80_PE7989_Req_NonNumericData_withAllwrongcolumn_MDA,200,Thread Group_Prod1 1-1,true,678,1,1,919,1,0,INFPU07042,246
1520242031589,340,NoFileUpload N81_PE7989_Req_NonNumericData_withAllrightcolumn_MDA,200,Thread Group_Prod1 1-1,true,846,1,1,340,1,0,INFPU07042,0
1520242031969,345,NoFileUpload N82_PE7989_Req_NonNumericData_with1wrongcolumn_MDA,200,Thread Group_Prod1 1-1,true,849,1,1,344,1,0,INFPU07042,0
1520242032345,330,NoFileUpload N83_PE7989_uploadMultipleFile,200,Thread Group_Prod1 1-1,true,835,1,1,329,1,0,INFPU07042,0
1520242032716,941,NoFileUpload N84_400 and 500 Error_crossSectionChecks,200,Thread Group_Prod1 1-1,true,619,1,1,941,1,0,INFPU07042,251
1520242033703,337,NoFileUpload N85_400 and 500 Error_crossSectionChecks,200,Thread Group_Prod1 1-1,true,648,1,1,337,1,0,INFPU07042,0
1520242034057,349,NoFileUpload N86_400 and 500 Error_crossSectionChecks,200,Thread Group_Prod1 1-1,true,647,1,1,349,1,0,INFPU07042,0
1520242034447,362,NoFileUpload N87_400 and 500 Error_crossSectionChecks,200,Thread Group_Prod1 1-1,true,501,1,1,362,1,0,INFPU07042,0
1520242034850,728,NoFileUpload N88_400 and 500 Error_crossSectionChecks,Non HTTP response code: java.net.SocketException,Thread Group_Prod1 1-1,false,2560,1,1,0,1,1,INFPU07042,250
1520242035620,1233,NoFileUpload N89_PE8186_to Add assertion,200,Thread Group_Prod1 1-1,true,944,1,1,1233,1,0,INFPU07042,246
1520242036878,333,NoFileUpload N90_PE8032_SyntaxError1_Fix,200,Thread Group_Prod1 1-1,false,674,1,1,333,1,1,INFPU07042,0
1520242037266,336,NoFileUpload N91_PE8032_SyntaxError2_Fix,200,Thread Group_Prod1 1-1,false,674,1,1,336,1,1,INFPU07042,0
1520242037670,955,NoFileUpload N92_PE8032_InvalidColumn,200,Thread Group_Prod1 1-1,true,758,1,1,954,1,0,INFPU07042,263
1520242038652,346,NoFileUpload N93_PE7771_Exp,200,Thread Group_Prod1 1-1,true,674,1,1,346,1,0,INFPU07042,0
1520242039043,346,NoFileUpload N94_PE7771_Range,200,Thread Group_Prod1 1-1,true,917,1,1,346,1,0,INFPU07042,0
1520242039425,1446,NoFileUpload N94_PE7771_Added Scenario,200,Thread Group_Prod1 1-1,true,6106,1,1,1445,1,0,INFPU07042,0
1520242040907,1241,NoFileUpload N95_PE8269 and 8397_CSC_MDA_ClearValue_Fix,200,Thread Group_Prod1 1-1,false,582,1,1,1241,1,1,INFPU07042,249
1520242042173,335,NoFileUpload N96_PE8269 and 8397_CSC_OtherThanClearValue,200,Thread Group_Prod1 1-1,true,792,1,1,335,1,0,INFPU07042,0
1520242042537,337,NoFileUpload N97_PE8269 and 8397_UMF_NonMDA,200,Thread Group_Prod1 1-1,true,833,1,1,337,1,0,INFPU07042,0
1520242042909,1219,NoFileUpload N98_PE8269 and 8397_PDA_MDA_ClearValue_Fix,200,Thread Group_Prod1 1-1,false,576,1,1,1219,1,1,INFPU07042,246
1520242044170,328,NoFileUpload N99_PE8269 and 8397_PDA_OtherThanClearValue,200,Thread Group_Prod1 1-1,true,794,1,1,328,1,0,INFPU07042,0
1520242044542,10059,FileUpload F69_PE8584_Null Issue ,200,Thread Group_Prod1 1-1,true,14518,1,1,10054,1,0,INFPU07042,0
1520242054641,1791,FileUpload F70_PE8584,200,Thread Group_Prod1 1-1,false,16930,1,1,1448,1,1,INFPU07042,329
1520242056478,436,FileUpload F71_PE8584,200,Thread Group_Prod1 1-1,true,2020,1,1,436,1,0,INFPU07042,0
1520242056946,1063,FileUpload F72_PE8584,200,Thread Group_Prod1 1-1,true,2020,1,1,1063,1,0,INFPU07042,261
1520242058056,11561,FileUpload F73_PE8584,200,Thread Group_Prod1 1-1,true,14379,1,1,11557,1,0,INFPU07042,0
1520242069669,20404,FileUpload F74_PE8584,200,Thread Group_Prod1 1-1,true,14383,1,1,20399,1,0,INFPU07042,249
1520242090117,3996,FileUpload F75_PE8584,200,Thread Group_Prod1 1-1,true,18913,1,1,3645,1,0,INFPU07042,270
1520242094159,9674,FileUpload F76_PE8584,200,Thread Group_Prod1 1-1,false,174358,1,1,8348,1,1,INFPU07042,253
1520242103876,6217,FileUpload F77_PE8584,200,Thread Group_Prod1 1-1,true,56596,1,1,5522,1,0,INFPU07042,258
1520242110134,1409,FileUpload F78_PE8584,200,Thread Group_Prod1 1-1,true,6286,1,1,1406,1,0,INFPU07042,250
1520242111573,334,NoFileUpload N100_PE8916,200,Thread Group_Prod1 1-1,false,855,1,1,333,1,1,INFPU07042,0
1520242111968,4618,FileUpload F79_PE8951_P1,200,Thread Group_Prod1 1-1,true,34584,1,1,4308,1,0,INFPU07042,0
1520242116590,4774,FileUpload F80_PE8951_P2,200,Thread Group_Prod1 1-1,true,30843,1,1,4509,1,0,INFPU07042,266
1520242121366,4415,FileUpload F81_PE8951_P3,200,Thread Group_Prod1 1-1,true,30851,1,1,4138,1,0,INFPU07042,434
1520242125781,4430,FileUpload F82_PE8951_P4,200,Thread Group_Prod1 1-1,true,30843,1,1,4169,1,0,INFPU07042,257
1520242130213,3112,FileUpload F83_PE8951_N1,400,Thread Group_Prod1 1-1,true,389,1,1,3111,1,0,INFPU07042,270
1520242133327,3402,FileUpload F84_PE8951_N2,400,Thread Group_Prod1 1-1,true,389,1,1,3401,1,0,INFPU07042,247
1520242136735,3663,FileUpload F85_PE8951_N3,400,Thread Group_Prod1 1-1,true,388,1,1,3662,1,0,INFPU07042,278
1520242140401,3914,FileUpload F86_PE8951_N4,400,Thread Group_Prod1 1-1,true,388,1,1,3914,1,0,INFPU07042,258
1520242144326,4920,FileUpload F88_8976,200,Thread Group_Prod1 1-1,false,1564,1,1,4920,1,1,INFPU07042,272
1520242149248,5299,FileUpload F87_8976,422,Thread Group_Prod1 1-1,true,1187,1,1,5299,1,0,INFPU07042,264
1520255667391,2350,FileUpload F7_PE-7257_US_Excel_Shuffle,200,Thread Group_Prod1 1-1,true,4532,1,1,2350,1,0,INFPU07042,394
