timeStamp,elapsed,label,responseCode,threadName,success,bytes,grpThreads,allThreads,Latency,SampleCount,ErrorCount,Hostname,Connect
1511776140994,871,FileUpload D10_PE5216,200,Thread Group_Prod1 1-6,true,1510,10,10,870,1,0,INFPU07042,334
1511776140985,884,FileUpload D10_PE5216,200,Thread Group_Prod1 1-5,true,1510,10,10,884,1,0,INFPU07042,347
1511776140995,888,FileUpload D10_PE5216,200,Thread Group_Prod1 1-10,true,1510,10,10,887,1,0,INFPU07042,333
1511776140987,901,FileUpload D10_PE5216,200,Thread Group_Prod1 1-9,true,1510,10,10,901,1,0,INFPU07042,345
1511776140992,898,FileUpload D10_PE5216,200,Thread Group_Prod1 1-8,true,1510,10,10,898,1,0,INFPU07042,337
1511776140992,901,FileUpload D10_PE5216,200,Thread Group_Prod1 1-4,true,1510,10,10,901,1,0,INFPU07042,336
1511776140982,912,FileUpload D10_PE5216,200,Thread Group_Prod1 1-1,true,1510,10,10,911,1,0,INFPU07042,352
1511776140986,910,FileUpload D10_PE5216,200,Thread Group_Prod1 1-3,true,1510,10,10,910,1,0,INFPU07042,347
1511776140988,909,FileUpload D10_PE5216,200,Thread Group_Prod1 1-7,true,1510,10,10,908,1,0,INFPU07042,342
1511776140983,916,FileUpload D10_PE5216,200,Thread Group_Prod1 1-2,true,1510,10,10,916,1,0,INFPU07042,349
1511776141865,272,FileUpload D10_PE5216,200,Thread Group_Prod1 1-6,true,1510,10,10,271,1,0,INFPU07042,0
1511776141870,271,FileUpload D10_PE5216,200,Thread Group_Prod1 1-5,true,1510,10,10,271,1,0,INFPU07042,0
1511776141883,266,FileUpload D10_PE5216,200,Thread Group_Prod1 1-10,true,1510,10,10,264,1,0,INFPU07042,0
1511776141888,263,FileUpload D10_PE5216,200,Thread Group_Prod1 1-9,true,1510,10,10,263,1,0,INFPU07042,0
1511776141891,276,FileUpload D10_PE5216,200,Thread Group_Prod1 1-8,true,1510,10,10,275,1,0,INFPU07042,0
1511776141894,273,FileUpload D10_PE5216,200,Thread Group_Prod1 1-1,true,1510,10,10,273,1,0,INFPU07042,0
1511776141898,281,FileUpload D10_PE5216,200,Thread Group_Prod1 1-7,true,1510,10,10,280,1,0,INFPU07042,0
1511776141899,283,FileUpload D10_PE5216,200,Thread Group_Prod1 1-2,true,1510,10,10,283,1,0,INFPU07042,0
1511776141896,287,FileUpload D10_PE5216,200,Thread Group_Prod1 1-3,true,1510,10,10,287,1,0,INFPU07042,0
1511776141894,289,FileUpload D10_PE5216,200,Thread Group_Prod1 1-4,true,1510,10,10,288,1,0,INFPU07042,0
1511776142138,261,FileUpload D10_PE5216,200,Thread Group_Prod1 1-6,true,1510,10,10,259,1,0,INFPU07042,0
1511776142142,268,FileUpload D10_PE5216,200,Thread Group_Prod1 1-5,true,1510,10,10,267,1,0,INFPU07042,0
1511776142149,263,FileUpload D10_PE5216,200,Thread Group_Prod1 1-10,true,1510,10,10,263,1,0,INFPU07042,0
1511776142152,263,FileUpload D10_PE5216,200,Thread Group_Prod1 1-9,true,1510,10,10,263,1,0,INFPU07042,0
1511776142169,272,FileUpload D10_PE5216,200,Thread Group_Prod1 1-8,true,1510,10,10,271,1,0,INFPU07042,0
1511776142168,278,FileUpload D10_PE5216,200,Thread Group_Prod1 1-1,true,1510,10,10,273,1,0,INFPU07042,0
1511776142180,280,FileUpload D10_PE5216,200,Thread Group_Prod1 1-7,true,1510,10,10,279,1,0,INFPU07042,0
1511776142183,278,FileUpload D10_PE5216,200,Thread Group_Prod1 1-4,true,1510,10,10,278,1,0,INFPU07042,0
1511776142182,281,FileUpload D10_PE5216,200,Thread Group_Prod1 1-2,true,1510,10,10,281,1,0,INFPU07042,0
1511776142183,293,FileUpload D10_PE5216,200,Thread Group_Prod1 1-3,true,1510,10,10,292,1,0,INFPU07042,0
1511776142399,264,FileUpload D10_PE5216,200,Thread Group_Prod1 1-6,true,1510,10,10,264,1,0,INFPU07042,0
1511776142410,264,FileUpload D10_PE5216,200,Thread Group_Prod1 1-5,true,1510,10,10,263,1,0,INFPU07042,0
1511776142415,262,FileUpload D10_PE5216,200,Thread Group_Prod1 1-9,true,1510,10,10,261,1,0,INFPU07042,0
1511776142413,270,FileUpload D10_PE5216,200,Thread Group_Prod1 1-10,true,1510,10,10,270,1,0,INFPU07042,0
1511776142441,264,FileUpload D10_PE5216,200,Thread Group_Prod1 1-8,true,1510,10,10,264,1,0,INFPU07042,0
1511776142446,264,FileUpload D10_PE5216,200,Thread Group_Prod1 1-1,true,1510,10,10,264,1,0,INFPU07042,0
1511776142461,260,FileUpload D10_PE5216,200,Thread Group_Prod1 1-4,true,1510,10,10,259,1,0,INFPU07042,0
1511776142460,262,FileUpload D10_PE5216,200,Thread Group_Prod1 1-7,true,1510,10,10,262,1,0,INFPU07042,0
1511776142464,261,FileUpload D10_PE5216,200,Thread Group_Prod1 1-2,true,1510,10,10,260,1,0,INFPU07042,0
1511776142476,266,FileUpload D10_PE5216,200,Thread Group_Prod1 1-3,true,1510,10,10,266,1,0,INFPU07042,0
1511776142664,261,FileUpload D10_PE5216,200,Thread Group_Prod1 1-6,true,1510,10,10,260,1,0,INFPU07042,0
1511776142677,263,FileUpload D10_PE5216,200,Thread Group_Prod1 1-9,true,1510,10,10,262,1,0,INFPU07042,0
1511776142678,266,FileUpload D10_PE5216,200,Thread Group_Prod1 1-5,true,1510,10,10,265,1,0,INFPU07042,0
1511776142683,264,FileUpload D10_PE5216,200,Thread Group_Prod1 1-10,true,1510,10,10,263,1,0,INFPU07042,0
1511776142706,262,FileUpload D10_PE5216,200,Thread Group_Prod1 1-8,true,1510,10,10,262,1,0,INFPU07042,0
1511776142710,263,FileUpload D10_PE5216,200,Thread Group_Prod1 1-1,true,1510,10,10,263,1,0,INFPU07042,0
1511776142722,268,FileUpload D10_PE5216,200,Thread Group_Prod1 1-4,true,1510,10,10,267,1,0,INFPU07042,0
1511776142723,275,FileUpload D10_PE5216,200,Thread Group_Prod1 1-7,true,1510,10,10,274,1,0,INFPU07042,0
1511776142726,298,FileUpload D10_PE5216,200,Thread Group_Prod1 1-2,true,1510,10,10,295,1,0,INFPU07042,0
1511776142742,286,FileUpload D10_PE5216,200,Thread Group_Prod1 1-3,true,1510,10,10,286,1,0,INFPU07042,0
1511776142925,259,FileUpload D10_PE5216,200,Thread Group_Prod1 1-6,true,1510,10,10,258,1,0,INFPU07042,0
1511776142944,261,FileUpload D10_PE5216,200,Thread Group_Prod1 1-5,true,1510,10,10,261,1,0,INFPU07042,0
1511776142948,261,FileUpload D10_PE5216,200,Thread Group_Prod1 1-10,true,1510,10,10,261,1,0,INFPU07042,0
1511776142940,271,FileUpload D10_PE5216,200,Thread Group_Prod1 1-9,true,1510,10,10,263,1,0,INFPU07042,0
1511776142968,262,FileUpload D10_PE5216,200,Thread Group_Prod1 1-8,true,1510,10,10,262,1,0,INFPU07042,0
1511776142974,264,FileUpload D10_PE5216,200,Thread Group_Prod1 1-1,true,1510,10,10,264,1,0,INFPU07042,0
1511776142990,259,FileUpload D10_PE5216,200,Thread Group_Prod1 1-4,true,1510,10,10,259,1,0,INFPU07042,0
1511776142999,767,FileUpload D10_PE5216,200,Thread Group_Prod1 1-7,true,1510,10,10,766,1,0,INFPU07042,252
1511776143025,764,FileUpload D10_PE5216,200,Thread Group_Prod1 1-2,true,1510,10,10,764,1,0,INFPU07042,252
1511776143029,776,FileUpload D10_PE5216,200,Thread Group_Prod1 1-3,true,1510,10,10,776,1,0,INFPU07042,255
1511776143184,760,FileUpload D10_PE5216,200,Thread Group_Prod1 1-6,true,1510,10,10,759,1,0,INFPU07042,252
1511776143211,762,FileUpload D10_PE5216,200,Thread Group_Prod1 1-10,true,1510,10,10,762,1,0,INFPU07042,252
1511776143206,769,FileUpload D10_PE5216,200,Thread Group_Prod1 1-5,true,1510,10,10,769,1,0,INFPU07042,254
1511776143212,769,FileUpload D10_PE5216,200,Thread Group_Prod1 1-9,true,1510,10,10,769,1,0,INFPU07042,254
1511776143231,768,FileUpload D10_PE5216,200,Thread Group_Prod1 1-8,true,1510,10,10,767,1,0,INFPU07042,255
1511776143238,766,FileUpload D10_PE5216,200,Thread Group_Prod1 1-1,true,1510,10,10,764,1,0,INFPU07042,253
1511776143251,767,FileUpload D10_PE5216,200,Thread Group_Prod1 1-4,true,1510,10,10,767,1,0,INFPU07042,254
1511776143766,259,FileUpload D10_PE5216,200,Thread Group_Prod1 1-7,true,1510,10,10,259,1,0,INFPU07042,0
1511776143789,261,FileUpload D10_PE5216,200,Thread Group_Prod1 1-2,true,1510,10,10,261,1,0,INFPU07042,0
1511776143806,265,FileUpload D10_PE5216,200,Thread Group_Prod1 1-3,true,1510,10,10,265,1,0,INFPU07042,0
1511776143944,259,FileUpload D10_PE5216,200,Thread Group_Prod1 1-6,true,1510,10,10,259,1,0,INFPU07042,0
1511776143974,263,FileUpload D10_PE5216,200,Thread Group_Prod1 1-10,true,1510,10,10,263,1,0,INFPU07042,0
1511776143975,266,FileUpload D10_PE5216,200,Thread Group_Prod1 1-5,true,1510,10,10,266,1,0,INFPU07042,0
1511776143982,265,FileUpload D10_PE5216,200,Thread Group_Prod1 1-9,true,1510,10,10,264,1,0,INFPU07042,0
1511776144004,260,FileUpload D10_PE5216,200,Thread Group_Prod1 1-1,true,1510,10,10,260,1,0,INFPU07042,0
1511776144000,265,FileUpload D10_PE5216,200,Thread Group_Prod1 1-8,true,1510,10,10,265,1,0,INFPU07042,0
1511776144019,264,FileUpload D10_PE5216,200,Thread Group_Prod1 1-4,true,1510,10,10,263,1,0,INFPU07042,0
1511776144026,262,FileUpload D10_PE5216,200,Thread Group_Prod1 1-7,true,1510,10,10,262,1,0,INFPU07042,0
1511776144050,259,FileUpload D10_PE5216,200,Thread Group_Prod1 1-2,true,1510,10,10,258,1,0,INFPU07042,0
1511776144072,264,FileUpload D10_PE5216,200,Thread Group_Prod1 1-3,true,1510,10,10,264,1,0,INFPU07042,0
1511776144203,261,FileUpload D10_PE5216,200,Thread Group_Prod1 1-6,true,1510,10,10,260,1,0,INFPU07042,0
1511776144237,260,FileUpload D10_PE5216,200,Thread Group_Prod1 1-10,true,1510,10,10,260,1,0,INFPU07042,0
1511776144241,263,FileUpload D10_PE5216,200,Thread Group_Prod1 1-5,true,1510,10,10,263,1,0,INFPU07042,0
1511776144247,263,FileUpload D10_PE5216,200,Thread Group_Prod1 1-9,true,1510,10,10,263,1,0,INFPU07042,0
1511776144265,261,FileUpload D10_PE5216,200,Thread Group_Prod1 1-1,true,1510,10,10,261,1,0,INFPU07042,0
1511776144266,265,FileUpload D10_PE5216,200,Thread Group_Prod1 1-8,true,1510,10,10,265,1,0,INFPU07042,0
1511776144285,266,FileUpload D10_PE5216,200,Thread Group_Prod1 1-4,true,1510,10,10,266,1,0,INFPU07042,0
1511776144289,263,FileUpload D10_PE5216,200,Thread Group_Prod1 1-7,true,1510,10,10,263,1,0,INFPU07042,0
1511776144309,259,FileUpload D10_PE5216,200,Thread Group_Prod1 1-2,true,1510,10,10,259,1,0,INFPU07042,0
1511776144341,264,FileUpload D10_PE5216,200,Thread Group_Prod1 1-3,true,1510,10,10,264,1,0,INFPU07042,0
1511776144465,261,FileUpload D10_PE5216,200,Thread Group_Prod1 1-6,true,1510,10,10,261,1,0,INFPU07042,0
1511776144498,261,FileUpload D10_PE5216,200,Thread Group_Prod1 1-10,true,1510,10,10,260,1,0,INFPU07042,0
1511776144505,262,FileUpload D10_PE5216,200,Thread Group_Prod1 1-5,true,1510,10,10,261,1,0,INFPU07042,0
1511776144511,261,FileUpload D10_PE5216,200,Thread Group_Prod1 1-9,true,1510,10,10,260,1,0,INFPU07042,0
1511776144526,261,FileUpload D10_PE5216,200,Thread Group_Prod1 1-1,true,1510,10,10,261,1,0,INFPU07042,0
1511776144532,261,FileUpload D10_PE5216,200,Thread Group_Prod1 1-8,true,1510,10,10,261,1,0,INFPU07042,0
1511776144553,261,FileUpload D10_PE5216,200,Thread Group_Prod1 1-7,true,1510,10,10,261,1,0,INFPU07042,0
1511776144551,265,FileUpload D10_PE5216,200,Thread Group_Prod1 1-4,true,1510,10,10,265,1,0,INFPU07042,0
1511776144569,262,FileUpload D10_PE5216,200,Thread Group_Prod1 1-2,true,1510,10,10,262,1,0,INFPU07042,0
1511776144606,266,FileUpload D10_PE5216,200,Thread Group_Prod1 1-3,true,1510,10,10,266,1,0,INFPU07042,0
1511776144726,260,FileUpload D10_PE5216,200,Thread Group_Prod1 1-6,true,1510,10,10,260,1,0,INFPU07042,0
1511776144759,258,FileUpload D10_PE5216,200,Thread Group_Prod1 1-10,true,1510,10,10,258,1,0,INFPU07042,0
1511776144767,261,FileUpload D10_PE5216,200,Thread Group_Prod1 1-5,true,1510,10,10,261,1,0,INFPU07042,0
1511776144772,270,FileUpload D10_PE5216,200,Thread Group_Prod1 1-9,true,1510,10,10,262,1,0,INFPU07042,0
1511776144787,261,FileUpload D10_PE5216,200,Thread Group_Prod1 1-1,true,1510,10,10,260,1,0,INFPU07042,0
1511776144794,261,FileUpload D10_PE5216,200,Thread Group_Prod1 1-8,true,1510,10,10,261,1,0,INFPU07042,0
1511776144815,257,FileUpload D10_PE5216,200,Thread Group_Prod1 1-7,true,1510,10,10,257,1,0,INFPU07042,0
1511776144817,261,FileUpload D10_PE5216,200,Thread Group_Prod1 1-4,true,1510,10,10,260,1,0,INFPU07042,0
1511776144831,258,FileUpload D10_PE5216,200,Thread Group_Prod1 1-2,true,1510,10,10,258,1,0,INFPU07042,0
1511776144873,264,FileUpload D10_PE5216,200,Thread Group_Prod1 1-3,true,1510,10,10,264,1,0,INFPU07042,0
1511776144987,260,FileUpload D10_PE5216,200,Thread Group_Prod1 1-6,true,1510,10,10,260,1,0,INFPU07042,0
1511776145017,261,FileUpload D10_PE5216,200,Thread Group_Prod1 1-10,true,1510,10,10,260,1,0,INFPU07042,0
1511776145029,263,FileUpload D10_PE5216,200,Thread Group_Prod1 1-5,true,1510,10,10,262,1,0,INFPU07042,0
1511776145043,264,FileUpload D10_PE5216,200,Thread Group_Prod1 1-9,true,1510,10,10,263,1,0,INFPU07042,0
1511776145050,264,FileUpload D10_PE5216,200,Thread Group_Prod1 1-1,true,1510,10,10,263,1,0,INFPU07042,0
1511776145056,268,FileUpload D10_PE5216,200,Thread Group_Prod1 1-8,true,1510,10,10,267,1,0,INFPU07042,0
1511776145078,265,FileUpload D10_PE5216,200,Thread Group_Prod1 1-4,true,1510,10,10,264,1,0,INFPU07042,0
1511776145073,762,FileUpload D10_PE5216,200,Thread Group_Prod1 1-7,true,1510,10,10,761,1,0,INFPU07042,251
1511776145089,764,FileUpload D10_PE5216,200,Thread Group_Prod1 1-2,true,1510,10,10,764,1,0,INFPU07042,254
1511776145138,765,FileUpload D10_PE5216,200,Thread Group_Prod1 1-3,true,1510,10,10,765,1,0,INFPU07042,252
1511776145248,761,FileUpload D10_PE5216,200,Thread Group_Prod1 1-6,true,1510,10,10,761,1,0,INFPU07042,252
1511776145278,769,FileUpload D10_PE5216,200,Thread Group_Prod1 1-10,true,1510,10,10,769,1,0,INFPU07042,255
1511776145292,776,FileUpload D10_PE5216,200,Thread Group_Prod1 1-5,true,1510,10,10,775,1,0,INFPU07042,257
1511776145308,762,FileUpload D10_PE5216,200,Thread Group_Prod1 1-9,true,1510,10,10,762,1,0,INFPU07042,251
1511776145324,764,FileUpload D10_PE5216,200,Thread Group_Prod1 1-8,true,1510,10,10,763,1,0,INFPU07042,254
1511776145314,777,FileUpload D10_PE5216,200,Thread Group_Prod1 1-1,true,1510,10,10,777,1,0,INFPU07042,257
1511776145835,263,FileUpload D10_PE5216,200,Thread Group_Prod1 1-7,true,1510,10,10,263,1,0,INFPU07042,0
1511776145344,761,FileUpload D10_PE5216,200,Thread Group_Prod1 1-4,true,1510,10,10,761,1,0,INFPU07042,251
1511776145854,263,FileUpload D10_PE5216,200,Thread Group_Prod1 1-2,true,1510,10,10,262,1,0,INFPU07042,0
1511776145904,261,FileUpload D10_PE5216,200,Thread Group_Prod1 1-3,true,1510,10,10,261,1,0,INFPU07042,0
1511776146010,259,FileUpload D10_PE5216,200,Thread Group_Prod1 1-6,true,1510,10,10,259,1,0,INFPU07042,0
1511776146048,259,FileUpload D10_PE5216,200,Thread Group_Prod1 1-10,true,1510,10,10,259,1,0,INFPU07042,0
1511776146071,261,FileUpload D10_PE5216,200,Thread Group_Prod1 1-9,true,1510,10,10,261,1,0,INFPU07042,0
1511776146068,266,FileUpload D10_PE5216,200,Thread Group_Prod1 1-5,true,1510,10,10,266,1,0,INFPU07042,0
1511776146088,262,FileUpload D10_PE5216,200,Thread Group_Prod1 1-8,true,1510,10,10,262,1,0,INFPU07042,0
1511776146091,265,FileUpload D10_PE5216,200,Thread Group_Prod1 1-1,true,1510,10,10,265,1,0,INFPU07042,0
1511776146099,258,FileUpload D10_PE5216,200,Thread Group_Prod1 1-7,true,1510,10,10,258,1,0,INFPU07042,0
1511776146106,271,FileUpload D10_PE5216,200,Thread Group_Prod1 1-4,true,1510,10,10,270,1,0,INFPU07042,0
1511776146118,263,FileUpload D10_PE5216,200,Thread Group_Prod1 1-2,true,1510,10,10,263,1,0,INFPU07042,0
1511776146166,259,FileUpload D10_PE5216,200,Thread Group_Prod1 1-3,true,1510,10,10,259,1,0,INFPU07042,0
1511776146269,260,FileUpload D10_PE5216,200,Thread Group_Prod1 1-6,true,1510,10,10,260,1,0,INFPU07042,0
1511776146308,261,FileUpload D10_PE5216,200,Thread Group_Prod1 1-10,true,1510,10,10,261,1,0,INFPU07042,0
1511776146333,257,FileUpload D10_PE5216,200,Thread Group_Prod1 1-9,true,1510,10,10,257,1,0,INFPU07042,0
1511776146335,264,FileUpload D10_PE5216,200,Thread Group_Prod1 1-5,true,1510,10,10,264,1,0,INFPU07042,0
1511776146350,261,FileUpload D10_PE5216,200,Thread Group_Prod1 1-8,true,1510,10,10,261,1,0,INFPU07042,0
1511776146358,261,FileUpload D10_PE5216,200,Thread Group_Prod1 1-7,true,1510,10,10,261,1,0,INFPU07042,0
1511776146357,264,FileUpload D10_PE5216,200,Thread Group_Prod1 1-1,true,1510,10,10,264,1,0,INFPU07042,0
1511776146377,258,FileUpload D10_PE5216,200,Thread Group_Prod1 1-4,true,1510,10,10,258,1,0,INFPU07042,0
1511776146381,262,FileUpload D10_PE5216,200,Thread Group_Prod1 1-2,true,1510,10,10,262,1,0,INFPU07042,0
1511776146425,260,FileUpload D10_PE5216,200,Thread Group_Prod1 1-3,true,1510,10,10,260,1,0,INFPU07042,0
1511776146529,262,FileUpload D10_PE5216,200,Thread Group_Prod1 1-6,true,1510,10,10,261,1,0,INFPU07042,0
1511776146569,262,FileUpload D10_PE5216,200,Thread Group_Prod1 1-10,true,1510,10,10,262,1,0,INFPU07042,0
1511776146591,257,FileUpload D10_PE5216,200,Thread Group_Prod1 1-9,true,1510,10,10,257,1,0,INFPU07042,0
1511776146600,263,FileUpload D10_PE5216,200,Thread Group_Prod1 1-5,true,1510,10,10,263,1,0,INFPU07042,0
1511776146611,260,FileUpload D10_PE5216,200,Thread Group_Prod1 1-8,true,1510,10,10,260,1,0,INFPU07042,0
1511776146619,260,FileUpload D10_PE5216,200,Thread Group_Prod1 1-7,true,1510,10,10,259,1,0,INFPU07042,0
1511776146621,276,FileUpload D10_PE5216,200,Thread Group_Prod1 1-1,true,1510,10,10,276,1,0,INFPU07042,0
1511776146643,262,FileUpload D10_PE5216,200,Thread Group_Prod1 1-2,true,1510,10,10,262,1,0,INFPU07042,0
1511776146635,272,FileUpload D10_PE5216,200,Thread Group_Prod1 1-4,true,1510,10,10,272,1,0,INFPU07042,0
1511776146686,262,FileUpload D10_PE5216,200,Thread Group_Prod1 1-3,true,1510,10,10,262,1,0,INFPU07042,0
1511776146792,259,FileUpload D10_PE5216,200,Thread Group_Prod1 1-6,true,1510,10,10,258,1,0,INFPU07042,0
1511776146831,267,FileUpload D10_PE5216,200,Thread Group_Prod1 1-10,true,1510,10,10,266,1,0,INFPU07042,0
1511776146848,262,FileUpload D10_PE5216,200,Thread Group_Prod1 1-9,true,1510,10,10,261,1,0,INFPU07042,0
1511776146879,265,FileUpload D10_PE5216,200,Thread Group_Prod1 1-7,true,1510,10,10,263,1,0,INFPU07042,0
1511776146864,280,FileUpload D10_PE5216,200,Thread Group_Prod1 1-5,true,1510,10,10,279,1,0,INFPU07042,0
1511776146871,275,FileUpload D10_PE5216,200,Thread Group_Prod1 1-8,true,1510,10,10,275,1,0,INFPU07042,0
1511776146898,262,FileUpload D10_PE5216,200,Thread Group_Prod1 1-1,true,1510,10,10,262,1,0,INFPU07042,0
1511776146905,260,FileUpload D10_PE5216,200,Thread Group_Prod1 1-2,true,1510,10,10,260,1,0,INFPU07042,0
1511776146908,260,FileUpload D10_PE5216,200,Thread Group_Prod1 1-4,true,1510,10,10,260,1,0,INFPU07042,0
1511776146949,262,FileUpload D10_PE5216,200,Thread Group_Prod1 1-3,true,1510,10,10,261,1,0,INFPU07042,0
1511776147051,260,FileUpload D10_PE5216,200,Thread Group_Prod1 1-6,true,1510,10,10,259,1,0,INFPU07042,0
1511776147098,264,FileUpload D10_PE5216,200,Thread Group_Prod1 1-10,true,1510,10,10,264,1,0,INFPU07042,0
1511776147110,259,FileUpload D10_PE5216,200,Thread Group_Prod1 1-9,true,1510,10,10,259,1,0,INFPU07042,0
1511776147144,263,FileUpload D10_PE5216,200,Thread Group_Prod1 1-5,true,1510,10,10,262,1,0,INFPU07042,0
1511776147147,261,FileUpload D10_PE5216,200,Thread Group_Prod1 1-8,true,1510,10,10,261,1,0,INFPU07042,0
1511776147161,263,FileUpload D10_PE5216,200,Thread Group_Prod1 1-1,true,1510,10,10,262,1,0,INFPU07042,0
1511776147168,259,FileUpload D10_PE5216,200,Thread Group_Prod1 1-4,true,1510,10,10,259,1,0,INFPU07042,0
1511776147144,759,FileUpload D10_PE5216,200,Thread Group_Prod1 1-7,true,1510,10,10,758,1,0,INFPU07042,250
1511776147166,762,FileUpload D10_PE5216,200,Thread Group_Prod1 1-2,true,1510,10,10,761,1,0,INFPU07042,252
1511776147212,775,FileUpload D10_PE5216,200,Thread Group_Prod1 1-3,true,1510,10,10,775,1,0,INFPU07042,256
1511776147312,771,FileUpload D10_PE5216,200,Thread Group_Prod1 1-6,true,1510,10,10,770,1,0,INFPU07042,255
1511776147363,771,FileUpload D10_PE5216,200,Thread Group_Prod1 1-10,true,1510,10,10,770,1,0,INFPU07042,255
1511776147369,782,FileUpload D10_PE5216,200,Thread Group_Prod1 1-9,true,1510,10,10,781,1,0,INFPU07042,259
1511776147903,263,FileUpload D10_PE5216,200,Thread Group_Prod1 1-7,true,1510,10,10,262,1,0,INFPU07042,0
1511776147407,765,FileUpload D10_PE5216,200,Thread Group_Prod1 1-5,true,1510,10,10,765,1,0,INFPU07042,253
1511776147409,769,FileUpload D10_PE5216,200,Thread Group_Prod1 1-8,true,1510,10,10,768,1,0,INFPU07042,254
1511776147425,762,FileUpload D10_PE5216,200,Thread Group_Prod1 1-1,true,1510,10,10,761,1,0,INFPU07042,251
1511776147928,260,FileUpload D10_PE5216,200,Thread Group_Prod1 1-2,true,1510,10,10,259,1,0,INFPU07042,0
1511776147428,767,FileUpload D10_PE5216,200,Thread Group_Prod1 1-4,true,1510,10,10,766,1,0,INFPU07042,253
1511776147988,266,FileUpload D10_PE5216,200,Thread Group_Prod1 1-3,true,1510,10,10,265,1,0,INFPU07042,0
1511776148084,263,FileUpload D10_PE5216,200,Thread Group_Prod1 1-6,true,1510,10,10,262,1,0,INFPU07042,0
1511776148134,261,FileUpload D10_PE5216,200,Thread Group_Prod1 1-10,true,1510,10,10,260,1,0,INFPU07042,0
1511776148151,264,FileUpload D10_PE5216,200,Thread Group_Prod1 1-9,true,1510,10,10,263,1,0,INFPU07042,0
1511776148166,259,FileUpload D10_PE5216,200,Thread Group_Prod1 1-7,true,1510,10,10,259,1,0,INFPU07042,0
1511776148173,261,FileUpload D10_PE5216,200,Thread Group_Prod1 1-5,true,1510,10,10,261,1,0,INFPU07042,0
1511776148178,261,FileUpload D10_PE5216,200,Thread Group_Prod1 1-8,true,1510,10,10,261,1,0,INFPU07042,0
1511776148187,262,FileUpload D10_PE5216,200,Thread Group_Prod1 1-1,true,1510,10,10,262,1,0,INFPU07042,0
1511776148189,260,FileUpload D10_PE5216,200,Thread Group_Prod1 1-2,true,1510,10,10,259,1,0,INFPU07042,0
1511776148195,263,FileUpload D10_PE5216,200,Thread Group_Prod1 1-4,true,1510,10,10,262,1,0,INFPU07042,0
1511776148254,268,FileUpload D10_PE5216,200,Thread Group_Prod1 1-3,true,1510,10,10,267,1,0,INFPU07042,0
1511776148348,268,FileUpload D10_PE5216,200,Thread Group_Prod1 1-6,true,1510,10,10,267,1,0,INFPU07042,0
1511776148396,266,FileUpload D10_PE5216,200,Thread Group_Prod1 1-10,true,1510,10,10,265,1,0,INFPU07042,0
1511776148415,265,FileUpload D10_PE5216,200,Thread Group_Prod1 1-9,true,1510,10,10,264,1,0,INFPU07042,0
1511776148426,260,FileUpload D10_PE5216,200,Thread Group_Prod1 1-7,true,1510,10,10,260,1,0,INFPU07042,0
1511776148434,262,FileUpload D10_PE5216,200,Thread Group_Prod1 1-5,true,1510,10,10,261,1,0,INFPU07042,0
1511776148440,262,FileUpload D10_PE5216,200,Thread Group_Prod1 1-8,true,1510,10,10,262,1,0,INFPU07042,0
1511776148450,260,FileUpload D10_PE5216,200,Thread Group_Prod1 1-2,true,1510,10,10,260,1,0,INFPU07042,0
1511776148450,261,FileUpload D10_PE5216,200,Thread Group_Prod1 1-1,true,1510,10,10,261,1,0,INFPU07042,0
1511776148458,261,FileUpload D10_PE5216,200,Thread Group_Prod1 1-4,true,1510,10,10,260,1,0,INFPU07042,0
1511776148522,263,FileUpload D10_PE5216,200,Thread Group_Prod1 1-3,true,1510,10,10,263,1,0,INFPU07042,0
1511776148617,262,FileUpload D10_PE5216,200,Thread Group_Prod1 1-6,true,1510,10,10,261,1,0,INFPU07042,0
1511776148662,261,FileUpload D10_PE5216,200,Thread Group_Prod1 1-10,true,1510,10,10,261,1,0,INFPU07042,0
1511776148681,265,FileUpload D10_PE5216,200,Thread Group_Prod1 1-9,true,1510,10,10,264,1,0,INFPU07042,0
1511776148687,261,FileUpload D10_PE5216,200,Thread Group_Prod1 1-7,true,1510,10,10,261,1,0,INFPU07042,0
1511776148697,265,FileUpload D10_PE5216,200,Thread Group_Prod1 1-5,true,1510,10,10,264,1,0,INFPU07042,0
1511776148702,263,FileUpload D10_PE5216,200,Thread Group_Prod1 1-8,true,1510,10,10,263,1,0,INFPU07042,0
1511776148710,260,FileUpload D10_PE5216,200,Thread Group_Prod1 1-2,true,1510,10,10,260,1,0,INFPU07042,0
1511776148712,261,FileUpload D10_PE5216,200,Thread Group_Prod1 1-1,true,1510,10,10,261,1,0,INFPU07042,0
1511776148720,263,FileUpload D10_PE5216,200,Thread Group_Prod1 1-4,true,1510,10,10,262,1,0,INFPU07042,0
1511776148786,266,FileUpload D10_PE5216,200,Thread Group_Prod1 1-3,true,1510,10,10,266,1,0,INFPU07042,0
1511776148879,266,FileUpload D10_PE5216,200,Thread Group_Prod1 1-6,true,1510,10,10,265,1,0,INFPU07042,0
1511776148924,262,FileUpload D10_PE5216,200,Thread Group_Prod1 1-10,true,1510,10,10,261,1,0,INFPU07042,0
1511776148948,261,FileUpload D10_PE5216,200,Thread Group_Prod1 1-7,true,1510,10,10,261,1,0,INFPU07042,0
1511776148947,266,FileUpload D10_PE5216,200,Thread Group_Prod1 1-9,true,1510,10,10,266,1,0,INFPU07042,0
1511776148965,265,FileUpload D10_PE5216,200,Thread Group_Prod1 1-8,true,1510,10,10,265,1,0,INFPU07042,0
1511776148962,270,FileUpload D10_PE5216,200,Thread Group_Prod1 1-5,true,1510,10,10,269,1,0,INFPU07042,0
1511776148974,261,FileUpload D10_PE5216,200,Thread Group_Prod1 1-1,true,1510,10,10,261,1,0,INFPU07042,0
1511776148971,264,FileUpload D10_PE5216,200,Thread Group_Prod1 1-2,true,1510,10,10,263,1,0,INFPU07042,0
1511776148984,277,FileUpload D10_PE5216,200,Thread Group_Prod1 1-4,true,1510,10,10,276,1,0,INFPU07042,0
1511776149053,265,FileUpload D10_PE5216,200,Thread Group_Prod1 1-3,true,1510,10,10,265,1,0,INFPU07042,0
1511776149146,265,FileUpload D10_PE5216,200,Thread Group_Prod1 1-6,true,1510,10,10,264,1,0,INFPU07042,0
1511776149186,264,FileUpload D10_PE5216,200,Thread Group_Prod1 1-10,true,1510,10,10,262,1,0,INFPU07042,0
1511776149214,265,FileUpload D10_PE5216,200,Thread Group_Prod1 1-9,true,1510,10,10,265,1,0,INFPU07042,0
1511776149235,260,FileUpload D10_PE5216,200,Thread Group_Prod1 1-1,true,1510,10,10,260,1,0,INFPU07042,0
1511776149232,267,FileUpload D10_PE5216,200,Thread Group_Prod1 1-5,true,1510,10,10,267,1,0,INFPU07042,0
1511776149230,272,FileUpload D10_PE5216,200,Thread Group_Prod1 1-8,true,1510,10,10,272,1,0,INFPU07042,0
1511776149262,263,FileUpload D10_PE5216,200,Thread Group_Prod1 1-4,true,1510,10,10,262,1,0,INFPU07042,0
1511776149210,781,FileUpload D10_PE5216,200,Thread Group_Prod1 1-7,true,1510,10,10,781,1,0,INFPU07042,257
1511776149235,767,FileUpload D10_PE5216,200,Thread Group_Prod1 1-2,true,1510,10,10,767,1,0,INFPU07042,252
1511776149480,581,FileUpload D10_PE5216,Non HTTP response code: java.net.SocketException,Thread Group_Prod1 1-9,false,2675,10,10,0,1,1,INFPU07042,254
1511776150002,67,FileUpload D10_PE5216,Non HTTP response code: java.net.SocketException,Thread Group_Prod1 1-2,false,2675,9,9,0,1,1,INFPU07042,0
1511776149533,538,FileUpload D10_PE5216,Non HTTP response code: java.net.SocketException,Thread Group_Prod1 1-4,false,2675,9,9,0,1,1,INFPU07042,256
1511776149496,576,FileUpload D10_PE5216,Non HTTP response code: java.net.SocketException,Thread Group_Prod1 1-1,false,2675,7,7,0,1,1,INFPU07042,251
1511776149412,661,FileUpload D10_PE5216,Non HTTP response code: java.net.SocketException,Thread Group_Prod1 1-6,false,2675,6,6,0,1,1,INFPU07042,251
1511776149992,83,FileUpload D10_PE5216,Non HTTP response code: java.net.SocketException,Thread Group_Prod1 1-7,false,2675,5,5,0,1,1,INFPU07042,0
1511776149502,574,FileUpload D10_PE5216,Non HTTP response code: java.net.SocketException,Thread Group_Prod1 1-8,false,2675,4,4,0,1,1,INFPU07042,250
1511776149319,760,FileUpload D10_PE5216,Non HTTP response code: java.net.SocketException,Thread Group_Prod1 1-3,false,2675,3,3,0,1,1,INFPU07042,257
1511776149500,586,FileUpload D10_PE5216,Non HTTP response code: java.net.SocketException,Thread Group_Prod1 1-5,false,2675,2,2,0,1,1,INFPU07042,252
1511776149451,636,FileUpload D10_PE5216,Non HTTP response code: java.net.SocketException,Thread Group_Prod1 1-10,false,2675,1,1,0,1,1,INFPU07042,252
