{  
   "entities":[  
      {  
         "sectionStructure":{  
            "columns":[  
               {  
                  "code":"city",
                  "displayLabel":"city",
                  "dataType":"int",
                  "validations":[  
                     {  
                        "errorType":"ERROR",
                        "validationType":"rangeValidationRefTable",
						"referenceTableName":"jwala_data_2",
						"errorGroup":"Personal",
                        "message":"Length of Department"
                     }
                  ]
               },
               {  
                  "code":"COUNTRY_CODE",
                  "displayLabel":"COUNTRY_CODE",
                  "dataType":"int",
                  "validations":[  
                     {  
                        "errorType":"ERROR",
                        "validationType":"rangeValidationRefTable",
						"referenceTableName":"jwala_data_2",
						"errorGroup":"Personal",
                        "message":"Length of Department"
                     }
                  ]
               },
			   {  
                  "code":"YOUR_EEID",
                  "displayLabel":"YOUR_EEID",
                  "dataType":"int",
                  "validations":[  
                     {  
                        "errorType":"ERROR",
                        "validationType":"expression",
                        "expression":"DECODE(LENGTH({this.YOUR_EEID}) > 0,true,false);",
                        "errorGroup":"Personal",
                        "message":"Length of Department"
                     }
                  ]
               },
			   		

			   {  
                  "code":"CAREER_STREAM",
                  "displayLabel":"CAREER_STREAM",
                  "dataType":"int",
                  "validations":[  
                     {  
                        "errorType":"ERROR",
                        "validationType":"expression",
                        "expression":"DECODE(LENGTH({this.EMP006}) > 0,true,false)",
                        "errorGroup":"Personal",
                        "message":"Length of Department"
                     }
                  ]
               },
			   {  
                  "code":"CAREER_LEVEL",
                  "displayLabel":"CAREER_LEVEL",
                  "dataType":"int",
                  "validations":[ ]
               },
			   {  
                  "code":"POS_CODE",
                  "displayLabel":"POS_CODE",
                  "dataType":"int",
                  "validations":[  ]
               }
            ]
         },
         "contextData":{  
            "uniqueIdColumnCode":"ID",
            "campaignId":"11111",
            "sectionId":"11111",
			"companyName":"Company1",
            "grpCode":"1435",
            "cpyCode":"4444",
            "ctryCode":"PL",
            "industry":{  
               "superSector":"CG",
               "sector":"100",
               "subSector":"101"
            },
            "orgSize":123,
			"CTX_CTRY_CODE":"US"
         }
      }
   ]
}