{  
   "entities":[  
      {  
         "sectionStructure":{  
            "columns":[  
               {  
                  "code":"city",
                  "displayLabel":"city",
                  "dataType":"int",
                  "validations":[  
                     {  
                        "errorType":"ERROR",
                        "validationType":"rangeValidationRefTable",
						"referenceTableName":"ref_table_name",
						"errorGroup":"Personal",
                        "message":"Length of City"
                     }
                  ]
               },
               {  
                  "code":"COUNTRY_CODE",
                  "displayLabel":"COUNTRY_CODE",
                  "dataType":"int",
                  "validations":[  
                     {  
                        "errorType":"ERROR",
                        "validationType":"rangeValidationRefTable",
						"referenceTableName":"ref_table_name",
						"errorGroup":"Personal",
                        "message":"Length of Country"
                     },
					 {
					"parameter": "",
					"expression": "ISBLANK(this.COUNTRY_CODE)",
					"clientInstructions": "Please provide COUNTRY_CODE",
					"errorType": "ERROR",
					"message": "Country code is blank",
					"validationType": "expression",
					"_id": "59e91b14a811920015bcd533",
					"category": "input_data",
					"dependentColumns": []
					},
						
					{
					"parameter": "",
					"expression": "this.COUNTRY_CODE * 2",
					"clientInstructions": "Please provide COUNTRY_CODE",
					"errorType": "AUTOCORRECT",
					"message": "COUNTRY_CODE is blank",
					"validationType": "expression",
					"_id": "59e91b14a811920015bcd533",
					"category": "input_data",
					"dependentColumns": []
					}
					 
					 
                  ]
               },
			   {  
                  "code":"YOUR_EEID",
                  "displayLabel":"YOUR_EEID",
                  "dataType":"int",
                  "validations":[]
               },
			   {  
                  "code":"EMP006",
                  "displayLabel":"EMP_006",
                  "dataType":"int",
                  "validations":[]
               }
            ]
         },
         "contextData":{  
            "uniqueIdColumnCode":"ID",
            "campaignId":"11111",
            "sectionId":"11111",
			"companyName":"Company1",
            "grpCode":"1435",
            "cpyCode":"4444",
            "ctryCode":"PL",
            "industry":{  
               "superSector":"CG",
               "sector":"100",
               "subSector":"101"
            },
            "orgSize":123,
			"CTX_CTRY_CODE":"US"
         }
      }
   ]
}